%YAML 1.1
%TAG !u! tag:unity3d.com,2011:
--- !u!1 &3739546648100000767
GameObject:
  m_ObjectHideFlags: 0
  m_CorrespondingSourceObject: {fileID: 0}
  m_PrefabInstance: {fileID: 0}
  m_PrefabAsset: {fileID: 0}
  serializedVersion: 6
  m_Component:
  - component: {fileID: 3952730321858635066}
  - component: {fileID: 1763281779129370804}
  m_Layer: 31
  m_Name: Fossil
  m_TagString: Untagged
  m_Icon: {fileID: 0}
  m_NavMeshLayer: 0
  m_StaticEditorFlags: 0
  m_IsActive: 1
--- !u!4 &3952730321858635066
Transform:
  m_ObjectHideFlags: 0
  m_CorrespondingSourceObject: {fileID: 0}
  m_PrefabInstance: {fileID: 0}
  m_PrefabAsset: {fileID: 0}
  m_GameObject: {fileID: 3739546648100000767}
  m_LocalRotation: {x: 0, y: 0, z: 0, w: 1}
  m_LocalPosition: {x: 0, y: 0, z: 0}
  m_LocalScale: {x: 1, y: 1, z: 1}
  m_Children:
  - {fileID: 5463694644230371826}
  m_Father: {fileID: 0}
  m_RootOrder: 0
  m_LocalEulerAnglesHint: {x: 0, y: 0, z: 0}
--- !u!156049354 &1763281779129370804
Grid:
  m_ObjectHideFlags: 0
  m_CorrespondingSourceObject: {fileID: 0}
  m_PrefabInstance: {fileID: 0}
  m_PrefabAsset: {fileID: 0}
  m_GameObject: {fileID: 3739546648100000767}
  m_Enabled: 1
  m_CellSize: {x: 0.06, y: 0.07, z: 0}
  m_CellGap: {x: 0, y: 0, z: 0}
  m_CellLayout: 0
  m_CellSwizzle: 0
--- !u!1 &8254527621036697405
GameObject:
  m_ObjectHideFlags: 0
  m_CorrespondingSourceObject: {fileID: 0}
  m_PrefabInstance: {fileID: 0}
  m_PrefabAsset: {fileID: 0}
  serializedVersion: 6
  m_Component:
  - component: {fileID: 5463694644230371826}
  - component: {fileID: 2582686713631679401}
  - component: {fileID: 4082291136807950695}
  m_Layer: 31
  m_Name: Layer1
  m_TagString: Untagged
  m_Icon: {fileID: 0}
  m_NavMeshLayer: 0
  m_StaticEditorFlags: 0
  m_IsActive: 1
--- !u!4 &5463694644230371826
Transform:
  m_ObjectHideFlags: 0
  m_CorrespondingSourceObject: {fileID: 0}
  m_PrefabInstance: {fileID: 0}
  m_PrefabAsset: {fileID: 0}
  m_GameObject: {fileID: 8254527621036697405}
  m_LocalRotation: {x: -0, y: -0, z: -0, w: 1}
  m_LocalPosition: {x: 0, y: 0, z: 0}
  m_LocalScale: {x: 1, y: 1, z: 1}
  m_Children: []
  m_Father: {fileID: 3952730321858635066}
  m_RootOrder: 0
  m_LocalEulerAnglesHint: {x: 0, y: 0, z: 0}
--- !u!1839735485 &2582686713631679401
Tilemap:
  m_ObjectHideFlags: 0
  m_CorrespondingSourceObject: {fileID: 0}
  m_PrefabInstance: {fileID: 0}
  m_PrefabAsset: {fileID: 0}
  m_GameObject: {fileID: 8254527621036697405}
  m_Enabled: 1
  m_Tiles:
  - first: {x: -3, y: -6, z: 0}
    second:
      m_TileIndex: 42
      m_TileSpriteIndex: 42
      m_TileMatrixIndex: 0
      m_TileColorIndex: 0
      m_ObjectToInstantiate: {fileID: 0}
      m_TileFlags: 1
      m_ColliderType: 1
  - first: {x: -2, y: -6, z: 0}
    second:
      m_TileIndex: 43
      m_TileSpriteIndex: 43
      m_TileMatrixIndex: 0
      m_TileColorIndex: 0
      m_ObjectToInstantiate: {fileID: 0}
      m_TileFlags: 1
      m_ColliderType: 1
  - first: {x: -1, y: -6, z: 0}
    second:
      m_TileIndex: 44
      m_TileSpriteIndex: 44
      m_TileMatrixIndex: 0
      m_TileColorIndex: 0
      m_ObjectToInstantiate: {fileID: 0}
      m_TileFlags: 1
      m_ColliderType: 1
  - first: {x: 0, y: -6, z: 0}
    second:
      m_TileIndex: 45
      m_TileSpriteIndex: 45
      m_TileMatrixIndex: 0
      m_TileColorIndex: 0
      m_ObjectToInstantiate: {fileID: 0}
      m_TileFlags: 1
      m_ColliderType: 1
  - first: {x: 1, y: -6, z: 0}
    second:
      m_TileIndex: 46
      m_TileSpriteIndex: 46
      m_TileMatrixIndex: 0
      m_TileColorIndex: 0
      m_ObjectToInstantiate: {fileID: 0}
      m_TileFlags: 1
      m_ColliderType: 1
  - first: {x: -3, y: -5, z: 0}
    second:
      m_TileIndex: 35
      m_TileSpriteIndex: 35
      m_TileMatrixIndex: 0
      m_TileColorIndex: 0
      m_ObjectToInstantiate: {fileID: 0}
      m_TileFlags: 1
      m_ColliderType: 1
  - first: {x: -2, y: -5, z: 0}
    second:
      m_TileIndex: 36
      m_TileSpriteIndex: 36
      m_TileMatrixIndex: 0
      m_TileColorIndex: 0
      m_ObjectToInstantiate: {fileID: 0}
      m_TileFlags: 1
      m_ColliderType: 1
  - first: {x: -1, y: -5, z: 0}
    second:
      m_TileIndex: 37
      m_TileSpriteIndex: 37
      m_TileMatrixIndex: 0
      m_TileColorIndex: 0
      m_ObjectToInstantiate: {fileID: 0}
      m_TileFlags: 1
      m_ColliderType: 1
  - first: {x: 0, y: -5, z: 0}
    second:
      m_TileIndex: 38
      m_TileSpriteIndex: 38
      m_TileMatrixIndex: 0
      m_TileColorIndex: 0
      m_ObjectToInstantiate: {fileID: 0}
      m_TileFlags: 1
      m_ColliderType: 1
  - first: {x: 1, y: -5, z: 0}
    second:
      m_TileIndex: 39
      m_TileSpriteIndex: 39
      m_TileMatrixIndex: 0
      m_TileColorIndex: 0
      m_ObjectToInstantiate: {fileID: 0}
      m_TileFlags: 1
      m_ColliderType: 1
  - first: {x: 2, y: -5, z: 0}
    second:
      m_TileIndex: 40
      m_TileSpriteIndex: 40
      m_TileMatrixIndex: 0
      m_TileColorIndex: 0
      m_ObjectToInstantiate: {fileID: 0}
      m_TileFlags: 1
      m_ColliderType: 1
  - first: {x: 3, y: -5, z: 0}
    second:
      m_TileIndex: 41
      m_TileSpriteIndex: 41
      m_TileMatrixIndex: 0
      m_TileColorIndex: 0
      m_ObjectToInstantiate: {fileID: 0}
      m_TileFlags: 1
      m_ColliderType: 1
  - first: {x: -3, y: -4, z: 0}
    second:
      m_TileIndex: 28
      m_TileSpriteIndex: 28
      m_TileMatrixIndex: 0
      m_TileColorIndex: 0
      m_ObjectToInstantiate: {fileID: 0}
      m_TileFlags: 1
      m_ColliderType: 1
  - first: {x: -2, y: -4, z: 0}
    second:
      m_TileIndex: 29
      m_TileSpriteIndex: 29
      m_TileMatrixIndex: 0
      m_TileColorIndex: 0
      m_ObjectToInstantiate: {fileID: 0}
      m_TileFlags: 1
      m_ColliderType: 1
  - first: {x: -1, y: -4, z: 0}
    second:
      m_TileIndex: 30
      m_TileSpriteIndex: 30
      m_TileMatrixIndex: 0
      m_TileColorIndex: 0
      m_ObjectToInstantiate: {fileID: 0}
      m_TileFlags: 1
      m_ColliderType: 1
  - first: {x: 0, y: -4, z: 0}
    second:
      m_TileIndex: 31
      m_TileSpriteIndex: 31
      m_TileMatrixIndex: 0
      m_TileColorIndex: 0
      m_ObjectToInstantiate: {fileID: 0}
      m_TileFlags: 1
      m_ColliderType: 1
  - first: {x: 1, y: -4, z: 0}
    second:
      m_TileIndex: 32
      m_TileSpriteIndex: 32
      m_TileMatrixIndex: 0
      m_TileColorIndex: 0
      m_ObjectToInstantiate: {fileID: 0}
      m_TileFlags: 1
      m_ColliderType: 1
  - first: {x: 2, y: -4, z: 0}
    second:
      m_TileIndex: 33
      m_TileSpriteIndex: 33
      m_TileMatrixIndex: 0
      m_TileColorIndex: 0
      m_ObjectToInstantiate: {fileID: 0}
      m_TileFlags: 1
      m_ColliderType: 1
  - first: {x: 3, y: -4, z: 0}
    second:
      m_TileIndex: 34
      m_TileSpriteIndex: 34
      m_TileMatrixIndex: 0
      m_TileColorIndex: 0
      m_ObjectToInstantiate: {fileID: 0}
      m_TileFlags: 1
      m_ColliderType: 1
  - first: {x: -3, y: -3, z: 0}
    second:
      m_TileIndex: 21
      m_TileSpriteIndex: 21
      m_TileMatrixIndex: 0
      m_TileColorIndex: 0
      m_ObjectToInstantiate: {fileID: 0}
      m_TileFlags: 1
      m_ColliderType: 1
  - first: {x: -2, y: -3, z: 0}
    second:
      m_TileIndex: 22
      m_TileSpriteIndex: 22
      m_TileMatrixIndex: 0
      m_TileColorIndex: 0
      m_ObjectToInstantiate: {fileID: 0}
      m_TileFlags: 1
      m_ColliderType: 1
  - first: {x: -1, y: -3, z: 0}
    second:
      m_TileIndex: 23
      m_TileSpriteIndex: 23
      m_TileMatrixIndex: 0
      m_TileColorIndex: 0
      m_ObjectToInstantiate: {fileID: 0}
      m_TileFlags: 1
      m_ColliderType: 1
  - first: {x: 0, y: -3, z: 0}
    second:
      m_TileIndex: 24
      m_TileSpriteIndex: 24
      m_TileMatrixIndex: 0
      m_TileColorIndex: 0
      m_ObjectToInstantiate: {fileID: 0}
      m_TileFlags: 1
      m_ColliderType: 1
  - first: {x: 1, y: -3, z: 0}
    second:
      m_TileIndex: 25
      m_TileSpriteIndex: 25
      m_TileMatrixIndex: 0
      m_TileColorIndex: 0
      m_ObjectToInstantiate: {fileID: 0}
      m_TileFlags: 1
      m_ColliderType: 1
  - first: {x: 2, y: -3, z: 0}
    second:
      m_TileIndex: 26
      m_TileSpriteIndex: 26
      m_TileMatrixIndex: 0
      m_TileColorIndex: 0
      m_ObjectToInstantiate: {fileID: 0}
      m_TileFlags: 1
      m_ColliderType: 1
  - first: {x: 3, y: -3, z: 0}
    second:
      m_TileIndex: 27
      m_TileSpriteIndex: 27
      m_TileMatrixIndex: 0
      m_TileColorIndex: 0
      m_ObjectToInstantiate: {fileID: 0}
      m_TileFlags: 1
      m_ColliderType: 1
  - first: {x: -3, y: -2, z: 0}
    second:
      m_TileIndex: 14
      m_TileSpriteIndex: 14
      m_TileMatrixIndex: 0
      m_TileColorIndex: 0
      m_ObjectToInstantiate: {fileID: 0}
      m_TileFlags: 1
      m_ColliderType: 1
  - first: {x: -2, y: -2, z: 0}
    second:
      m_TileIndex: 15
      m_TileSpriteIndex: 15
      m_TileMatrixIndex: 0
      m_TileColorIndex: 0
      m_ObjectToInstantiate: {fileID: 0}
      m_TileFlags: 1
      m_ColliderType: 1
  - first: {x: -1, y: -2, z: 0}
    second:
      m_TileIndex: 16
      m_TileSpriteIndex: 16
      m_TileMatrixIndex: 0
      m_TileColorIndex: 0
      m_ObjectToInstantiate: {fileID: 0}
      m_TileFlags: 1
      m_ColliderType: 1
  - first: {x: 0, y: -2, z: 0}
    second:
      m_TileIndex: 17
      m_TileSpriteIndex: 17
      m_TileMatrixIndex: 0
      m_TileColorIndex: 0
      m_ObjectToInstantiate: {fileID: 0}
      m_TileFlags: 1
      m_ColliderType: 1
  - first: {x: 1, y: -2, z: 0}
    second:
      m_TileIndex: 18
      m_TileSpriteIndex: 18
      m_TileMatrixIndex: 0
      m_TileColorIndex: 0
      m_ObjectToInstantiate: {fileID: 0}
      m_TileFlags: 1
      m_ColliderType: 1
  - first: {x: 2, y: -2, z: 0}
    second:
      m_TileIndex: 19
      m_TileSpriteIndex: 19
      m_TileMatrixIndex: 0
      m_TileColorIndex: 0
      m_ObjectToInstantiate: {fileID: 0}
      m_TileFlags: 1
      m_ColliderType: 1
  - first: {x: 3, y: -2, z: 0}
    second:
      m_TileIndex: 20
      m_TileSpriteIndex: 20
      m_TileMatrixIndex: 0
      m_TileColorIndex: 0
      m_ObjectToInstantiate: {fileID: 0}
      m_TileFlags: 1
      m_ColliderType: 1
  - first: {x: -3, y: -1, z: 0}
    second:
      m_TileIndex: 7
      m_TileSpriteIndex: 7
      m_TileMatrixIndex: 0
      m_TileColorIndex: 0
      m_ObjectToInstantiate: {fileID: 0}
      m_TileFlags: 1
      m_ColliderType: 1
  - first: {x: -2, y: -1, z: 0}
    second:
      m_TileIndex: 8
      m_TileSpriteIndex: 8
      m_TileMatrixIndex: 0
      m_TileColorIndex: 0
      m_ObjectToInstantiate: {fileID: 0}
      m_TileFlags: 1
      m_ColliderType: 1
  - first: {x: -1, y: -1, z: 0}
    second:
      m_TileIndex: 9
      m_TileSpriteIndex: 9
      m_TileMatrixIndex: 0
      m_TileColorIndex: 0
      m_ObjectToInstantiate: {fileID: 0}
      m_TileFlags: 1
      m_ColliderType: 1
  - first: {x: 0, y: -1, z: 0}
    second:
      m_TileIndex: 10
      m_TileSpriteIndex: 10
      m_TileMatrixIndex: 0
      m_TileColorIndex: 0
      m_ObjectToInstantiate: {fileID: 0}
      m_TileFlags: 1
      m_ColliderType: 1
  - first: {x: 1, y: -1, z: 0}
    second:
      m_TileIndex: 11
      m_TileSpriteIndex: 11
      m_TileMatrixIndex: 0
      m_TileColorIndex: 0
      m_ObjectToInstantiate: {fileID: 0}
      m_TileFlags: 1
      m_ColliderType: 1
  - first: {x: 2, y: -1, z: 0}
    second:
      m_TileIndex: 12
      m_TileSpriteIndex: 12
      m_TileMatrixIndex: 0
      m_TileColorIndex: 0
      m_ObjectToInstantiate: {fileID: 0}
      m_TileFlags: 1
      m_ColliderType: 1
  - first: {x: 3, y: -1, z: 0}
    second:
      m_TileIndex: 13
      m_TileSpriteIndex: 13
      m_TileMatrixIndex: 0
      m_TileColorIndex: 0
      m_ObjectToInstantiate: {fileID: 0}
      m_TileFlags: 1
      m_ColliderType: 1
  - first: {x: -3, y: 0, z: 0}
    second:
      m_TileIndex: 0
      m_TileSpriteIndex: 0
      m_TileMatrixIndex: 0
      m_TileColorIndex: 0
      m_ObjectToInstantiate: {fileID: 0}
      m_TileFlags: 1
      m_ColliderType: 1
  - first: {x: -2, y: 0, z: 0}
    second:
      m_TileIndex: 1
      m_TileSpriteIndex: 1
      m_TileMatrixIndex: 0
      m_TileColorIndex: 0
      m_ObjectToInstantiate: {fileID: 0}
      m_TileFlags: 1
      m_ColliderType: 1
  - first: {x: -1, y: 0, z: 0}
    second:
      m_TileIndex: 2
      m_TileSpriteIndex: 2
      m_TileMatrixIndex: 0
      m_TileColorIndex: 0
      m_ObjectToInstantiate: {fileID: 0}
      m_TileFlags: 1
      m_ColliderType: 1
  - first: {x: 0, y: 0, z: 0}
    second:
      m_TileIndex: 3
      m_TileSpriteIndex: 3
      m_TileMatrixIndex: 0
      m_TileColorIndex: 0
      m_ObjectToInstantiate: {fileID: 0}
      m_TileFlags: 1
      m_ColliderType: 1
  - first: {x: 1, y: 0, z: 0}
    second:
      m_TileIndex: 4
      m_TileSpriteIndex: 4
      m_TileMatrixIndex: 0
      m_TileColorIndex: 0
      m_ObjectToInstantiate: {fileID: 0}
      m_TileFlags: 1
      m_ColliderType: 1
  - first: {x: 2, y: 0, z: 0}
    second:
      m_TileIndex: 5
      m_TileSpriteIndex: 5
      m_TileMatrixIndex: 0
      m_TileColorIndex: 0
      m_ObjectToInstantiate: {fileID: 0}
      m_TileFlags: 1
      m_ColliderType: 1
  - first: {x: 3, y: 0, z: 0}
    second:
      m_TileIndex: 6
      m_TileSpriteIndex: 6
      m_TileMatrixIndex: 0
      m_TileColorIndex: 0
      m_ObjectToInstantiate: {fileID: 0}
      m_TileFlags: 1
      m_ColliderType: 1
  m_AnimatedTiles: {}
  m_TileAssetArray:
  - m_RefCount: 1
    m_Data: {fileID: 11400000, guid: accef4efeb256484cb9fed7c8d585e75, type: 2}
  - m_RefCount: 1
    m_Data: {fileID: 11400000, guid: 5c984cad991ef8d42868e4bede969c54, type: 2}
  - m_RefCount: 1
    m_Data: {fileID: 11400000, guid: 09af4c48637a840468c5d098a087de9c, type: 2}
  - m_RefCount: 1
    m_Data: {fileID: 11400000, guid: 939a7f74f418e194982fe50c775ebe39, type: 2}
  - m_RefCount: 1
    m_Data: {fileID: 11400000, guid: 5cc10549b69c38744993eac46a801719, type: 2}
  - m_RefCount: 1
    m_Data: {fileID: 11400000, guid: e89e858d670c61444956e0748272281e, type: 2}
  - m_RefCount: 1
    m_Data: {fileID: 11400000, guid: 27f40c800b43f9f4392951f0a348078f, type: 2}
  - m_RefCount: 1
    m_Data: {fileID: 11400000, guid: 9ebd0bd23fa38a64cadbe22ce5bb4967, type: 2}
  - m_RefCount: 1
    m_Data: {fileID: 11400000, guid: cb6070eb6b56dfb4dab833ac9b9c6ef3, type: 2}
  - m_RefCount: 1
    m_Data: {fileID: 11400000, guid: 7a198cd7e6806614ca1ca3440d178d50, type: 2}
  - m_RefCount: 1
    m_Data: {fileID: 11400000, guid: 0ab05c5063b939645accca56bbebe597, type: 2}
  - m_RefCount: 1
    m_Data: {fileID: 11400000, guid: 2216d375dc299c245bf0822526924680, type: 2}
  - m_RefCount: 1
    m_Data: {fileID: 11400000, guid: 9f9d95a5376cd4a4f9d6082aa29388aa, type: 2}
  - m_RefCount: 1
    m_Data: {fileID: 11400000, guid: 3a80cf4a4899dca44beb92f42e5a504e, type: 2}
  - m_RefCount: 1
    m_Data: {fileID: 11400000, guid: 627ed08e8550beb4c8f50ece8c66ab07, type: 2}
  - m_RefCount: 1
    m_Data: {fileID: 11400000, guid: 9229c33ef36afe548b446fde5cd0f0f2, type: 2}
  - m_RefCount: 1
    m_Data: {fileID: 11400000, guid: a3ca75663bf78e64c93643e6cf22d768, type: 2}
  - m_RefCount: 1
    m_Data: {fileID: 11400000, guid: 462868e0ec1c3ce4497d577d2b4ecc6b, type: 2}
  - m_RefCount: 1
    m_Data: {fileID: 11400000, guid: 2c3765057e8036f45b89d06a275c4593, type: 2}
  - m_RefCount: 1
    m_Data: {fileID: 11400000, guid: c72d2991d33e5394ba9d8890d4e4fa85, type: 2}
  - m_RefCount: 1
    m_Data: {fileID: 11400000, guid: 0e723117a62ef79458e1733d33f6ba71, type: 2}
  - m_RefCount: 1
    m_Data: {fileID: 11400000, guid: 984d4deff5fd7594b988b4410a2704e8, type: 2}
  - m_RefCount: 1
    m_Data: {fileID: 11400000, guid: f87d88b7458d0f640837d3f0b109ed31, type: 2}
  - m_RefCount: 1
    m_Data: {fileID: 11400000, guid: e0ea280caef6a3641b1e633fc15a7641, type: 2}
  - m_RefCount: 1
    m_Data: {fileID: 11400000, guid: 1f4580dc44c6e5c40ae0f9aa79cb42d1, type: 2}
  - m_RefCount: 1
    m_Data: {fileID: 11400000, guid: 8fa0bc29f807d104eaef94d0a49ac81c, type: 2}
  - m_RefCount: 1
    m_Data: {fileID: 11400000, guid: 96c64929b3b249a4abbd7b161e44c890, type: 2}
  - m_RefCount: 1
    m_Data: {fileID: 11400000, guid: 77dfb1d809d91864492c0c0ebb1f82e8, type: 2}
  - m_RefCount: 1
    m_Data: {fileID: 11400000, guid: cdb8f4d02b47e3843a09a8e617b3a29d, type: 2}
  - m_RefCount: 1
    m_Data: {fileID: 11400000, guid: a57eb78ce4e83144c9a77c3120c30ab3, type: 2}
  - m_RefCount: 1
    m_Data: {fileID: 11400000, guid: f0bb57800db988f47b015d789bf94c8b, type: 2}
  - m_RefCount: 1
    m_Data: {fileID: 11400000, guid: aaea4dd6ec1780149bd56dd153ed1d6c, type: 2}
  - m_RefCount: 1
    m_Data: {fileID: 11400000, guid: c164bd5711093384195d6bb72b317a9c, type: 2}
  - m_RefCount: 1
    m_Data: {fileID: 11400000, guid: 31f132c440528cb4792602d9699739d9, type: 2}
  - m_RefCount: 1
    m_Data: {fileID: 11400000, guid: b0e60022f0e49cd41be0a312407e211c, type: 2}
  - m_RefCount: 1
    m_Data: {fileID: 11400000, guid: e409e25ebc525e0419dd183435beee8e, type: 2}
  - m_RefCount: 1
    m_Data: {fileID: 11400000, guid: 0f54b1d88fd6a6d46a1c635c818a4ed3, type: 2}
  - m_RefCount: 1
    m_Data: {fileID: 11400000, guid: e990aa0af037e21499eefd534931c60a, type: 2}
  - m_RefCount: 1
    m_Data: {fileID: 11400000, guid: 055674c3a283ccd4685ebe5578254ed6, type: 2}
  - m_RefCount: 1
    m_Data: {fileID: 11400000, guid: 569f84090262bbd4c9c45235ad31aa6f, type: 2}
  - m_RefCount: 1
    m_Data: {fileID: 11400000, guid: 385c4d87da4fa04499e56350c9e06d92, type: 2}
  - m_RefCount: 1
    m_Data: {fileID: 11400000, guid: 042a379af0eaa05428b81c48cf0d65f2, type: 2}
  - m_RefCount: 1
    m_Data: {fileID: 11400000, guid: 1478ebedd0773434a821243bd596c0be, type: 2}
  - m_RefCount: 1
    m_Data: {fileID: 11400000, guid: 9bded037c9624fe4bb3230fa49aed808, type: 2}
  - m_RefCount: 1
    m_Data: {fileID: 11400000, guid: db7ad3de643e4884795c3837c2cdf4d2, type: 2}
  - m_RefCount: 1
    m_Data: {fileID: 11400000, guid: 37b10cc8d9bd1704fbd067b174a4cf70, type: 2}
  - m_RefCount: 1
    m_Data: {fileID: 11400000, guid: 74f17398f7b4a9648b85e9098eaa5d8a, type: 2}
  m_TileSpriteArray:
  - m_RefCount: 1
    m_Data: {fileID: 8589465530452383103, guid: aff7cb4cbb5430c46bd299a214ac63a3,
      type: 3}
  - m_RefCount: 1
    m_Data: {fileID: 4770621458642760086, guid: aff7cb4cbb5430c46bd299a214ac63a3,
      type: 3}
  - m_RefCount: 1
    m_Data: {fileID: -1471042037651174610, guid: aff7cb4cbb5430c46bd299a214ac63a3,
      type: 3}
  - m_RefCount: 1
    m_Data: {fileID: 7406458204230764082, guid: aff7cb4cbb5430c46bd299a214ac63a3,
      type: 3}
  - m_RefCount: 1
    m_Data: {fileID: 185569850003766317, guid: aff7cb4cbb5430c46bd299a214ac63a3, type: 3}
  - m_RefCount: 1
    m_Data: {fileID: 5320600004866142567, guid: aff7cb4cbb5430c46bd299a214ac63a3,
      type: 3}
  - m_RefCount: 1
    m_Data: {fileID: 6056295445263016036, guid: aff7cb4cbb5430c46bd299a214ac63a3,
      type: 3}
  - m_RefCount: 1
    m_Data: {fileID: 8057103347709489285, guid: aff7cb4cbb5430c46bd299a214ac63a3,
      type: 3}
  - m_RefCount: 1
    m_Data: {fileID: -402001254139822042, guid: aff7cb4cbb5430c46bd299a214ac63a3,
      type: 3}
  - m_RefCount: 1
    m_Data: {fileID: 5033783828977836739, guid: aff7cb4cbb5430c46bd299a214ac63a3,
      type: 3}
  - m_RefCount: 1
    m_Data: {fileID: -7932484259128486197, guid: aff7cb4cbb5430c46bd299a214ac63a3,
      type: 3}
  - m_RefCount: 1
    m_Data: {fileID: 8548217785220676408, guid: aff7cb4cbb5430c46bd299a214ac63a3,
      type: 3}
  - m_RefCount: 1
    m_Data: {fileID: 1124646928540088343, guid: aff7cb4cbb5430c46bd299a214ac63a3,
      type: 3}
  - m_RefCount: 1
    m_Data: {fileID: 4398717377793880691, guid: aff7cb4cbb5430c46bd299a214ac63a3,
      type: 3}
  - m_RefCount: 1
    m_Data: {fileID: -2967117765036770594, guid: aff7cb4cbb5430c46bd299a214ac63a3,
      type: 3}
  - m_RefCount: 1
    m_Data: {fileID: -4561675371633009204, guid: aff7cb4cbb5430c46bd299a214ac63a3,
      type: 3}
  - m_RefCount: 1
    m_Data: {fileID: -74594420603295707, guid: aff7cb4cbb5430c46bd299a214ac63a3, type: 3}
  - m_RefCount: 1
    m_Data: {fileID: -749274204983603865, guid: aff7cb4cbb5430c46bd299a214ac63a3,
      type: 3}
  - m_RefCount: 1
    m_Data: {fileID: -8152839680918666378, guid: aff7cb4cbb5430c46bd299a214ac63a3,
      type: 3}
  - m_RefCount: 1
    m_Data: {fileID: 4633274705578195293, guid: aff7cb4cbb5430c46bd299a214ac63a3,
      type: 3}
  - m_RefCount: 1
    m_Data: {fileID: -5025977173752651263, guid: aff7cb4cbb5430c46bd299a214ac63a3,
      type: 3}
  - m_RefCount: 1
    m_Data: {fileID: -7460733783581163792, guid: aff7cb4cbb5430c46bd299a214ac63a3,
      type: 3}
  - m_RefCount: 1
    m_Data: {fileID: 4468176469609239440, guid: aff7cb4cbb5430c46bd299a214ac63a3,
      type: 3}
  - m_RefCount: 1
    m_Data: {fileID: -9094865869947331902, guid: aff7cb4cbb5430c46bd299a214ac63a3,
      type: 3}
  - m_RefCount: 1
    m_Data: {fileID: 3759083565906014963, guid: aff7cb4cbb5430c46bd299a214ac63a3,
      type: 3}
  - m_RefCount: 1
    m_Data: {fileID: -7680374282966085535, guid: aff7cb4cbb5430c46bd299a214ac63a3,
      type: 3}
  - m_RefCount: 1
    m_Data: {fileID: -244290915372109356, guid: aff7cb4cbb5430c46bd299a214ac63a3,
      type: 3}
  - m_RefCount: 1
    m_Data: {fileID: -8025283631162733868, guid: aff7cb4cbb5430c46bd299a214ac63a3,
      type: 3}
  - m_RefCount: 1
    m_Data: {fileID: 8619707623575057352, guid: aff7cb4cbb5430c46bd299a214ac63a3,
      type: 3}
  - m_RefCount: 1
    m_Data: {fileID: 8286751234931740927, guid: aff7cb4cbb5430c46bd299a214ac63a3,
      type: 3}
  - m_RefCount: 1
    m_Data: {fileID: -3180809756674747274, guid: aff7cb4cbb5430c46bd299a214ac63a3,
      type: 3}
  - m_RefCount: 1
    m_Data: {fileID: 7413034278528407884, guid: aff7cb4cbb5430c46bd299a214ac63a3,
      type: 3}
  - m_RefCount: 1
    m_Data: {fileID: 8278715188874555266, guid: aff7cb4cbb5430c46bd299a214ac63a3,
      type: 3}
  - m_RefCount: 1
    m_Data: {fileID: 7586852091936808780, guid: aff7cb4cbb5430c46bd299a214ac63a3,
      type: 3}
  - m_RefCount: 1
    m_Data: {fileID: 8284004944740468656, guid: aff7cb4cbb5430c46bd299a214ac63a3,
      type: 3}
  - m_RefCount: 1
    m_Data: {fileID: 7823890365742264392, guid: aff7cb4cbb5430c46bd299a214ac63a3,
      type: 3}
  - m_RefCount: 1
    m_Data: {fileID: -5122660572196727443, guid: aff7cb4cbb5430c46bd299a214ac63a3,
      type: 3}
  - m_RefCount: 1
    m_Data: {fileID: 4173547611321565302, guid: aff7cb4cbb5430c46bd299a214ac63a3,
      type: 3}
  - m_RefCount: 1
    m_Data: {fileID: -4348131020622806241, guid: aff7cb4cbb5430c46bd299a214ac63a3,
      type: 3}
  - m_RefCount: 1
    m_Data: {fileID: -3321526298120745520, guid: aff7cb4cbb5430c46bd299a214ac63a3,
      type: 3}
  - m_RefCount: 1
    m_Data: {fileID: 6222262419689147479, guid: aff7cb4cbb5430c46bd299a214ac63a3,
      type: 3}
  - m_RefCount: 1
    m_Data: {fileID: -3280716982861034046, guid: aff7cb4cbb5430c46bd299a214ac63a3,
      type: 3}
  - m_RefCount: 1
    m_Data: {fileID: -7199950258909649738, guid: aff7cb4cbb5430c46bd299a214ac63a3,
      type: 3}
  - m_RefCount: 1
    m_Data: {fileID: 7380975244323017052, guid: aff7cb4cbb5430c46bd299a214ac63a3,
      type: 3}
  - m_RefCount: 1
    m_Data: {fileID: 4755874243136660638, guid: aff7cb4cbb5430c46bd299a214ac63a3,
      type: 3}
  - m_RefCount: 1
    m_Data: {fileID: -3473758641687072468, guid: aff7cb4cbb5430c46bd299a214ac63a3,
      type: 3}
  - m_RefCount: 1
    m_Data: {fileID: 4050875231567139324, guid: aff7cb4cbb5430c46bd299a214ac63a3,
      type: 3}
  m_TileMatrixArray:
  - m_RefCount: 47
    m_Data:
      e00: 1
      e01: 0
      e02: 0
      e03: 0
      e10: 0
      e11: 1
      e12: 0
      e13: 0
      e20: 0
      e21: 0
      e22: 1
      e23: 0
      e30: 0
      e31: 0
      e32: 0
      e33: 1
  m_TileColorArray:
  - m_RefCount: 47
    m_Data: {r: 1, g: 1, b: 1, a: 1}
  m_AnimationFrameRate: 1
  m_Color: {r: 1, g: 1, b: 1, a: 1}
  m_Origin: {x: -3, y: -6, z: 0}
  m_Size: {x: 7, y: 7, z: 1}
  m_TileAnchor: {x: 0.5, y: 0.5, z: 0}
  m_TileOrientation: 0
  m_TileOrientationMatrix:
    e00: 1
    e01: 0
    e02: 0
    e03: 0
    e10: 0
    e11: 1
    e12: 0
    e13: 0
    e20: 0
    e21: 0
    e22: 1
    e23: 0
    e30: 0
    e31: 0
    e32: 0
    e33: 1
--- !u!483693784 &4082291136807950695
TilemapRenderer:
  m_ObjectHideFlags: 0
  m_CorrespondingSourceObject: {fileID: 0}
  m_PrefabInstance: {fileID: 0}
  m_PrefabAsset: {fileID: 0}
  m_GameObject: {fileID: 8254527621036697405}
  m_Enabled: 0
  m_CastShadows: 0
  m_ReceiveShadows: 0
  m_DynamicOccludee: 0
  m_MotionVectors: 1
  m_LightProbeUsage: 0
  m_ReflectionProbeUsage: 0
  m_RenderingLayerMask: 1
  m_RendererPriority: 0
  m_Materials:
  - {fileID: 10754, guid: 0000000000000000f000000000000000, type: 0}
  m_StaticBatchInfo:
    firstSubMesh: 0
    subMeshCount: 0
  m_StaticBatchRoot: {fileID: 0}
  m_ProbeAnchor: {fileID: 0}
  m_LightProbeVolumeOverride: {fileID: 0}
  m_ScaleInLightmap: 1
  m_ReceiveGI: 1
  m_PreserveUVs: 0
  m_IgnoreNormalsForChartDetection: 0
  m_ImportantGI: 0
  m_StitchLightmapSeams: 1
  m_SelectedEditorRenderState: 0
  m_MinimumChartSize: 4
  m_AutoUVMaxDistance: 0.5
  m_AutoUVMaxAngle: 89
  m_LightmapParameters: {fileID: 0}
  m_SortingLayerID: 0
  m_SortingLayer: 0
  m_SortingOrder: 0
  m_ChunkSize: {x: 32, y: 32, z: 32}
  m_ChunkCullingBounds: {x: 0, y: 0, z: 0}
  m_MaxChunkCount: 16
  m_MaxFrameAge: 16
  m_SortOrder: 0
  m_Mode: 0
  m_DetectChunkCullingBounds: 0
  m_MaskInteraction: 0
--- !u!114 &-363165136483350000
MonoBehaviour:
  m_ObjectHideFlags: 0
  m_CorrespondingSourceObject: {fileID: 0}
  m_PrefabInstance: {fileID: 0}
  m_PrefabAsset: {fileID: 0}
  m_GameObject: {fileID: 0}
  m_Enabled: 1
  m_EditorHideFlags: 0
  m_Script: {fileID: 12395, guid: 0000000000000000e000000000000000, type: 0}
  m_Name: Palette Settings
  m_EditorClassIdentifier: 
  cellSizing: 0
