%YAML 1.1
%TAG !u! tag:unity3d.com,2011:
--- !u!1 &2002665527470158889
GameObject:
  m_ObjectHideFlags: 0
  m_CorrespondingSourceObject: {fileID: 0}
  m_PrefabInstance: {fileID: 0}
  m_PrefabAsset: {fileID: 0}
  serializedVersion: 6
  m_Component:
  - component: {fileID: 4508074794325453204}
  - component: {fileID: 5477032128314540070}
  m_Layer: 31
  m_Name: Caverns
  m_TagString: Untagged
  m_Icon: {fileID: 0}
  m_NavMeshLayer: 0
  m_StaticEditorFlags: 0
  m_IsActive: 1
--- !u!4 &4508074794325453204
Transform:
  m_ObjectHideFlags: 0
  m_CorrespondingSourceObject: {fileID: 0}
  m_PrefabInstance: {fileID: 0}
  m_PrefabAsset: {fileID: 0}
  m_GameObject: {fileID: 2002665527470158889}
  m_LocalRotation: {x: 0, y: 0, z: 0, w: 1}
  m_LocalPosition: {x: 0, y: 0, z: 0}
  m_LocalScale: {x: 1, y: 1, z: 1}
  m_Children:
  - {fileID: 7603587339911492928}
  m_Father: {fileID: 0}
  m_RootOrder: 0
  m_LocalEulerAnglesHint: {x: 0, y: 0, z: 0}
--- !u!156049354 &5477032128314540070
Grid:
  m_ObjectHideFlags: 0
  m_CorrespondingSourceObject: {fileID: 0}
  m_PrefabInstance: {fileID: 0}
  m_PrefabAsset: {fileID: 0}
  m_GameObject: {fileID: 2002665527470158889}
  m_Enabled: 1
  m_CellSize: {x: 1, y: 1, z: 0}
  m_CellGap: {x: 0, y: 0, z: 0}
  m_CellLayout: 0
  m_CellSwizzle: 0
--- !u!1 &9144681322021915894
GameObject:
  m_ObjectHideFlags: 0
  m_CorrespondingSourceObject: {fileID: 0}
  m_PrefabInstance: {fileID: 0}
  m_PrefabAsset: {fileID: 0}
  serializedVersion: 6
  m_Component:
  - component: {fileID: 7603587339911492928}
  - component: {fileID: 6032772272690570070}
  - component: {fileID: 556532996577851533}
  m_Layer: 31
  m_Name: Layer1
  m_TagString: Untagged
  m_Icon: {fileID: 0}
  m_NavMeshLayer: 0
  m_StaticEditorFlags: 0
  m_IsActive: 1
--- !u!4 &7603587339911492928
Transform:
  m_ObjectHideFlags: 0
  m_CorrespondingSourceObject: {fileID: 0}
  m_PrefabInstance: {fileID: 0}
  m_PrefabAsset: {fileID: 0}
  m_GameObject: {fileID: 9144681322021915894}
  m_LocalRotation: {x: -0, y: -0, z: -0, w: 1}
  m_LocalPosition: {x: 0, y: 0, z: 0}
  m_LocalScale: {x: 1, y: 1, z: 1}
  m_Children: []
  m_Father: {fileID: 4508074794325453204}
  m_RootOrder: 0
  m_LocalEulerAnglesHint: {x: 0, y: 0, z: 0}
--- !u!1839735485 &6032772272690570070
Tilemap:
  m_ObjectHideFlags: 0
  m_CorrespondingSourceObject: {fileID: 0}
  m_PrefabInstance: {fileID: 0}
  m_PrefabAsset: {fileID: 0}
  m_GameObject: {fileID: 9144681322021915894}
  m_Enabled: 1
  m_Tiles:
  - first: {x: -4, y: -19, z: 0}
    second:
      serializedVersion: 2
      m_TileIndex: 126
      m_TileSpriteIndex: 126
      m_TileMatrixIndex: 0
      m_TileColorIndex: 0
      m_TileObjectToInstantiateIndex: 65535
      m_AllTileFlags: 1073741825
  - first: {x: -3, y: -19, z: 0}
    second:
      serializedVersion: 2
      m_TileIndex: 127
      m_TileSpriteIndex: 127
      m_TileMatrixIndex: 0
      m_TileColorIndex: 0
      m_TileObjectToInstantiateIndex: 65535
      m_AllTileFlags: 1073741825
  - first: {x: -2, y: -19, z: 0}
    second:
      serializedVersion: 2
      m_TileIndex: 128
      m_TileSpriteIndex: 128
      m_TileMatrixIndex: 0
      m_TileColorIndex: 0
      m_TileObjectToInstantiateIndex: 65535
      m_AllTileFlags: 1073741825
  - first: {x: -1, y: -19, z: 0}
    second:
      serializedVersion: 2
      m_TileIndex: 129
      m_TileSpriteIndex: 129
      m_TileMatrixIndex: 0
      m_TileColorIndex: 0
      m_TileObjectToInstantiateIndex: 65535
      m_AllTileFlags: 1073741825
  - first: {x: 0, y: -19, z: 0}
    second:
      serializedVersion: 2
      m_TileIndex: 130
      m_TileSpriteIndex: 130
      m_TileMatrixIndex: 0
      m_TileColorIndex: 0
      m_TileObjectToInstantiateIndex: 65535
      m_AllTileFlags: 1073741825
  - first: {x: 1, y: -19, z: 0}
    second:
      serializedVersion: 2
      m_TileIndex: 131
      m_TileSpriteIndex: 131
      m_TileMatrixIndex: 0
      m_TileColorIndex: 0
      m_TileObjectToInstantiateIndex: 65535
      m_AllTileFlags: 1073741825
  - first: {x: 2, y: -19, z: 0}
    second:
      serializedVersion: 2
      m_TileIndex: 132
      m_TileSpriteIndex: 132
      m_TileMatrixIndex: 0
      m_TileColorIndex: 0
      m_TileObjectToInstantiateIndex: 65535
      m_AllTileFlags: 1073741825
  - first: {x: 3, y: -19, z: 0}
    second:
      serializedVersion: 2
      m_TileIndex: 133
      m_TileSpriteIndex: 133
      m_TileMatrixIndex: 0
      m_TileColorIndex: 0
      m_TileObjectToInstantiateIndex: 65535
      m_AllTileFlags: 1073741825
  - first: {x: -4, y: -18, z: 0}
    second:
      serializedVersion: 2
      m_TileIndex: 118
      m_TileSpriteIndex: 118
      m_TileMatrixIndex: 0
      m_TileColorIndex: 0
      m_TileObjectToInstantiateIndex: 65535
      m_AllTileFlags: 1073741825
  - first: {x: -3, y: -18, z: 0}
    second:
      serializedVersion: 2
      m_TileIndex: 119
      m_TileSpriteIndex: 119
      m_TileMatrixIndex: 0
      m_TileColorIndex: 0
      m_TileObjectToInstantiateIndex: 65535
      m_AllTileFlags: 1073741825
  - first: {x: -2, y: -18, z: 0}
    second:
      serializedVersion: 2
      m_TileIndex: 120
      m_TileSpriteIndex: 120
      m_TileMatrixIndex: 0
      m_TileColorIndex: 0
      m_TileObjectToInstantiateIndex: 65535
      m_AllTileFlags: 1073741825
  - first: {x: -1, y: -18, z: 0}
    second:
      serializedVersion: 2
      m_TileIndex: 121
      m_TileSpriteIndex: 121
      m_TileMatrixIndex: 0
      m_TileColorIndex: 0
      m_TileObjectToInstantiateIndex: 65535
      m_AllTileFlags: 1073741825
  - first: {x: 0, y: -18, z: 0}
    second:
      serializedVersion: 2
      m_TileIndex: 122
      m_TileSpriteIndex: 122
      m_TileMatrixIndex: 0
      m_TileColorIndex: 0
      m_TileObjectToInstantiateIndex: 65535
      m_AllTileFlags: 1073741825
  - first: {x: 1, y: -18, z: 0}
    second:
      serializedVersion: 2
      m_TileIndex: 123
      m_TileSpriteIndex: 123
      m_TileMatrixIndex: 0
      m_TileColorIndex: 0
      m_TileObjectToInstantiateIndex: 65535
      m_AllTileFlags: 1073741825
  - first: {x: 2, y: -18, z: 0}
    second:
      serializedVersion: 2
      m_TileIndex: 124
      m_TileSpriteIndex: 124
      m_TileMatrixIndex: 0
      m_TileColorIndex: 0
      m_TileObjectToInstantiateIndex: 65535
      m_AllTileFlags: 1073741825
  - first: {x: 3, y: -18, z: 0}
    second:
      serializedVersion: 2
      m_TileIndex: 125
      m_TileSpriteIndex: 125
      m_TileMatrixIndex: 0
      m_TileColorIndex: 0
      m_TileObjectToInstantiateIndex: 65535
      m_AllTileFlags: 1073741825
  - first: {x: -4, y: -17, z: 0}
    second:
      serializedVersion: 2
      m_TileIndex: 110
      m_TileSpriteIndex: 110
      m_TileMatrixIndex: 0
      m_TileColorIndex: 0
      m_TileObjectToInstantiateIndex: 65535
      m_AllTileFlags: 1073741825
  - first: {x: -3, y: -17, z: 0}
    second:
      serializedVersion: 2
      m_TileIndex: 111
      m_TileSpriteIndex: 111
      m_TileMatrixIndex: 0
      m_TileColorIndex: 0
      m_TileObjectToInstantiateIndex: 65535
      m_AllTileFlags: 1073741825
  - first: {x: -2, y: -17, z: 0}
    second:
      serializedVersion: 2
      m_TileIndex: 112
      m_TileSpriteIndex: 112
      m_TileMatrixIndex: 0
      m_TileColorIndex: 0
      m_TileObjectToInstantiateIndex: 65535
      m_AllTileFlags: 1073741825
  - first: {x: -1, y: -17, z: 0}
    second:
      serializedVersion: 2
      m_TileIndex: 113
      m_TileSpriteIndex: 113
      m_TileMatrixIndex: 0
      m_TileColorIndex: 0
      m_TileObjectToInstantiateIndex: 65535
      m_AllTileFlags: 1073741825
  - first: {x: 0, y: -17, z: 0}
    second:
      serializedVersion: 2
      m_TileIndex: 114
      m_TileSpriteIndex: 114
      m_TileMatrixIndex: 0
      m_TileColorIndex: 0
      m_TileObjectToInstantiateIndex: 65535
      m_AllTileFlags: 1073741825
  - first: {x: 1, y: -17, z: 0}
    second:
      serializedVersion: 2
      m_TileIndex: 115
      m_TileSpriteIndex: 115
      m_TileMatrixIndex: 0
      m_TileColorIndex: 0
      m_TileObjectToInstantiateIndex: 65535
      m_AllTileFlags: 1073741825
  - first: {x: 2, y: -17, z: 0}
    second:
      serializedVersion: 2
      m_TileIndex: 116
      m_TileSpriteIndex: 116
      m_TileMatrixIndex: 0
      m_TileColorIndex: 0
      m_TileObjectToInstantiateIndex: 65535
      m_AllTileFlags: 1073741825
  - first: {x: 3, y: -17, z: 0}
    second:
      serializedVersion: 2
      m_TileIndex: 117
      m_TileSpriteIndex: 117
      m_TileMatrixIndex: 0
      m_TileColorIndex: 0
      m_TileObjectToInstantiateIndex: 65535
      m_AllTileFlags: 1073741825
  - first: {x: -4, y: -16, z: 0}
    second:
      serializedVersion: 2
      m_TileIndex: 104
      m_TileSpriteIndex: 104
      m_TileMatrixIndex: 0
      m_TileColorIndex: 0
      m_TileObjectToInstantiateIndex: 65535
      m_AllTileFlags: 1073741825
  - first: {x: -3, y: -16, z: 0}
    second:
      serializedVersion: 2
      m_TileIndex: 105
      m_TileSpriteIndex: 105
      m_TileMatrixIndex: 0
      m_TileColorIndex: 0
      m_TileObjectToInstantiateIndex: 65535
      m_AllTileFlags: 1073741825
  - first: {x: -2, y: -16, z: 0}
    second:
      serializedVersion: 2
      m_TileIndex: 106
      m_TileSpriteIndex: 106
      m_TileMatrixIndex: 0
      m_TileColorIndex: 0
      m_TileObjectToInstantiateIndex: 65535
      m_AllTileFlags: 1073741825
  - first: {x: 1, y: -16, z: 0}
    second:
      serializedVersion: 2
      m_TileIndex: 107
      m_TileSpriteIndex: 107
      m_TileMatrixIndex: 0
      m_TileColorIndex: 0
      m_TileObjectToInstantiateIndex: 65535
      m_AllTileFlags: 1073741825
  - first: {x: 2, y: -16, z: 0}
    second:
      serializedVersion: 2
      m_TileIndex: 108
      m_TileSpriteIndex: 108
      m_TileMatrixIndex: 0
      m_TileColorIndex: 0
      m_TileObjectToInstantiateIndex: 65535
      m_AllTileFlags: 1073741825
  - first: {x: 3, y: -16, z: 0}
    second:
      serializedVersion: 2
      m_TileIndex: 109
      m_TileSpriteIndex: 109
      m_TileMatrixIndex: 0
      m_TileColorIndex: 0
      m_TileObjectToInstantiateIndex: 65535
      m_AllTileFlags: 1073741825
  - first: {x: -4, y: -15, z: 0}
    second:
      serializedVersion: 2
      m_TileIndex: 97
      m_TileSpriteIndex: 97
      m_TileMatrixIndex: 0
      m_TileColorIndex: 0
      m_TileObjectToInstantiateIndex: 65535
      m_AllTileFlags: 1073741825
  - first: {x: -3, y: -15, z: 0}
    second:
      serializedVersion: 2
      m_TileIndex: 98
      m_TileSpriteIndex: 98
      m_TileMatrixIndex: 0
      m_TileColorIndex: 0
      m_TileObjectToInstantiateIndex: 65535
      m_AllTileFlags: 1073741825
  - first: {x: -2, y: -15, z: 0}
    second:
      serializedVersion: 2
      m_TileIndex: 99
      m_TileSpriteIndex: 99
      m_TileMatrixIndex: 0
      m_TileColorIndex: 0
      m_TileObjectToInstantiateIndex: 65535
      m_AllTileFlags: 1073741825
  - first: {x: 0, y: -15, z: 0}
    second:
      serializedVersion: 2
      m_TileIndex: 100
      m_TileSpriteIndex: 100
      m_TileMatrixIndex: 0
      m_TileColorIndex: 0
      m_TileObjectToInstantiateIndex: 65535
      m_AllTileFlags: 1073741825
  - first: {x: 1, y: -15, z: 0}
    second:
      serializedVersion: 2
      m_TileIndex: 101
      m_TileSpriteIndex: 101
      m_TileMatrixIndex: 0
      m_TileColorIndex: 0
      m_TileObjectToInstantiateIndex: 65535
      m_AllTileFlags: 1073741825
  - first: {x: 2, y: -15, z: 0}
    second:
      serializedVersion: 2
      m_TileIndex: 102
      m_TileSpriteIndex: 102
      m_TileMatrixIndex: 0
      m_TileColorIndex: 0
      m_TileObjectToInstantiateIndex: 65535
      m_AllTileFlags: 1073741825
  - first: {x: 3, y: -15, z: 0}
    second:
      serializedVersion: 2
      m_TileIndex: 103
      m_TileSpriteIndex: 103
      m_TileMatrixIndex: 0
      m_TileColorIndex: 0
      m_TileObjectToInstantiateIndex: 65535
      m_AllTileFlags: 1073741825
  - first: {x: 30, y: -15, z: 0}
    second:
      serializedVersion: 2
      m_TileIndex: 141
      m_TileSpriteIndex: 141
      m_TileMatrixIndex: 0
      m_TileColorIndex: 0
      m_TileObjectToInstantiateIndex: 65535
      m_AllTileFlags: 1073741825
  - first: {x: -4, y: -14, z: 0}
    second:
      serializedVersion: 2
      m_TileIndex: 91
      m_TileSpriteIndex: 91
      m_TileMatrixIndex: 0
      m_TileColorIndex: 0
      m_TileObjectToInstantiateIndex: 65535
      m_AllTileFlags: 1073741825
  - first: {x: -3, y: -14, z: 0}
    second:
      serializedVersion: 2
      m_TileIndex: 92
      m_TileSpriteIndex: 92
      m_TileMatrixIndex: 0
      m_TileColorIndex: 0
      m_TileObjectToInstantiateIndex: 65535
      m_AllTileFlags: 1073741825
  - first: {x: -2, y: -14, z: 0}
    second:
      serializedVersion: 2
      m_TileIndex: 93
      m_TileSpriteIndex: 93
      m_TileMatrixIndex: 0
      m_TileColorIndex: 0
      m_TileObjectToInstantiateIndex: 65535
      m_AllTileFlags: 1073741825
  - first: {x: 1, y: -14, z: 0}
    second:
      serializedVersion: 2
      m_TileIndex: 94
      m_TileSpriteIndex: 94
      m_TileMatrixIndex: 0
      m_TileColorIndex: 0
      m_TileObjectToInstantiateIndex: 65535
      m_AllTileFlags: 1073741825
  - first: {x: 2, y: -14, z: 0}
    second:
      serializedVersion: 2
      m_TileIndex: 95
      m_TileSpriteIndex: 95
      m_TileMatrixIndex: 0
      m_TileColorIndex: 0
      m_TileObjectToInstantiateIndex: 65535
      m_AllTileFlags: 1073741825
  - first: {x: 3, y: -14, z: 0}
    second:
      serializedVersion: 2
      m_TileIndex: 96
      m_TileSpriteIndex: 96
      m_TileMatrixIndex: 0
      m_TileColorIndex: 0
      m_TileObjectToInstantiateIndex: 65535
      m_AllTileFlags: 1073741825
  - first: {x: 30, y: -14, z: 0}
    second:
      serializedVersion: 2
      m_TileIndex: 138
      m_TileSpriteIndex: 138
      m_TileMatrixIndex: 0
      m_TileColorIndex: 0
      m_TileObjectToInstantiateIndex: 65535
      m_AllTileFlags: 1073741825
  - first: {x: 31, y: -14, z: 0}
    second:
      serializedVersion: 2
      m_TileIndex: 139
      m_TileSpriteIndex: 139
      m_TileMatrixIndex: 0
      m_TileColorIndex: 0
      m_TileObjectToInstantiateIndex: 65535
      m_AllTileFlags: 1073741825
  - first: {x: 32, y: -14, z: 0}
    second:
      serializedVersion: 2
      m_TileIndex: 140
      m_TileSpriteIndex: 140
      m_TileMatrixIndex: 0
      m_TileColorIndex: 0
      m_TileObjectToInstantiateIndex: 65535
      m_AllTileFlags: 1073741825
  - first: {x: -4, y: -13, z: 0}
    second:
      serializedVersion: 2
      m_TileIndex: 83
      m_TileSpriteIndex: 83
      m_TileMatrixIndex: 0
      m_TileColorIndex: 0
      m_TileObjectToInstantiateIndex: 65535
      m_AllTileFlags: 1073741825
  - first: {x: -3, y: -13, z: 0}
    second:
      serializedVersion: 2
      m_TileIndex: 84
      m_TileSpriteIndex: 84
      m_TileMatrixIndex: 0
      m_TileColorIndex: 0
      m_TileObjectToInstantiateIndex: 65535
      m_AllTileFlags: 1073741825
  - first: {x: -2, y: -13, z: 0}
    second:
      serializedVersion: 2
      m_TileIndex: 85
      m_TileSpriteIndex: 85
      m_TileMatrixIndex: 0
      m_TileColorIndex: 0
      m_TileObjectToInstantiateIndex: 65535
      m_AllTileFlags: 1073741825
  - first: {x: -1, y: -13, z: 0}
    second:
      serializedVersion: 2
      m_TileIndex: 86
      m_TileSpriteIndex: 86
      m_TileMatrixIndex: 0
      m_TileColorIndex: 0
      m_TileObjectToInstantiateIndex: 65535
      m_AllTileFlags: 1073741825
  - first: {x: 0, y: -13, z: 0}
    second:
      serializedVersion: 2
      m_TileIndex: 87
      m_TileSpriteIndex: 87
      m_TileMatrixIndex: 0
      m_TileColorIndex: 0
      m_TileObjectToInstantiateIndex: 65535
      m_AllTileFlags: 1073741825
  - first: {x: 1, y: -13, z: 0}
    second:
      serializedVersion: 2
      m_TileIndex: 88
      m_TileSpriteIndex: 88
      m_TileMatrixIndex: 0
      m_TileColorIndex: 0
      m_TileObjectToInstantiateIndex: 65535
      m_AllTileFlags: 1073741825
  - first: {x: 2, y: -13, z: 0}
    second:
      serializedVersion: 2
      m_TileIndex: 89
      m_TileSpriteIndex: 89
      m_TileMatrixIndex: 0
      m_TileColorIndex: 0
      m_TileObjectToInstantiateIndex: 65535
      m_AllTileFlags: 1073741825
  - first: {x: 3, y: -13, z: 0}
    second:
      serializedVersion: 2
      m_TileIndex: 90
      m_TileSpriteIndex: 90
      m_TileMatrixIndex: 0
      m_TileColorIndex: 0
      m_TileObjectToInstantiateIndex: 65535
      m_AllTileFlags: 1073741825
  - first: {x: 30, y: -13, z: 0}
    second:
      serializedVersion: 2
      m_TileIndex: 135
      m_TileSpriteIndex: 135
      m_TileMatrixIndex: 0
      m_TileColorIndex: 0
      m_TileObjectToInstantiateIndex: 65535
      m_AllTileFlags: 1073741825
  - first: {x: 31, y: -13, z: 0}
    second:
      serializedVersion: 2
      m_TileIndex: 136
      m_TileSpriteIndex: 136
      m_TileMatrixIndex: 0
      m_TileColorIndex: 0
      m_TileObjectToInstantiateIndex: 65535
      m_AllTileFlags: 1073741825
  - first: {x: 32, y: -13, z: 0}
    second:
      serializedVersion: 2
      m_TileIndex: 137
      m_TileSpriteIndex: 137
      m_TileMatrixIndex: 0
      m_TileColorIndex: 0
      m_TileObjectToInstantiateIndex: 65535
      m_AllTileFlags: 1073741825
  - first: {x: -4, y: -12, z: 0}
    second:
      serializedVersion: 2
      m_TileIndex: 75
      m_TileSpriteIndex: 75
      m_TileMatrixIndex: 0
      m_TileColorIndex: 0
      m_TileObjectToInstantiateIndex: 65535
      m_AllTileFlags: 1073741825
  - first: {x: -3, y: -12, z: 0}
    second:
      serializedVersion: 2
      m_TileIndex: 76
      m_TileSpriteIndex: 76
      m_TileMatrixIndex: 0
      m_TileColorIndex: 0
      m_TileObjectToInstantiateIndex: 65535
      m_AllTileFlags: 1073741825
  - first: {x: -2, y: -12, z: 0}
    second:
      serializedVersion: 2
      m_TileIndex: 77
      m_TileSpriteIndex: 77
      m_TileMatrixIndex: 0
      m_TileColorIndex: 0
      m_TileObjectToInstantiateIndex: 65535
      m_AllTileFlags: 1073741825
  - first: {x: -1, y: -12, z: 0}
    second:
      serializedVersion: 2
      m_TileIndex: 78
      m_TileSpriteIndex: 78
      m_TileMatrixIndex: 0
      m_TileColorIndex: 0
      m_TileObjectToInstantiateIndex: 65535
      m_AllTileFlags: 1073741825
  - first: {x: 0, y: -12, z: 0}
    second:
      serializedVersion: 2
      m_TileIndex: 79
      m_TileSpriteIndex: 79
      m_TileMatrixIndex: 0
      m_TileColorIndex: 0
      m_TileObjectToInstantiateIndex: 65535
      m_AllTileFlags: 1073741825
  - first: {x: 1, y: -12, z: 0}
    second:
      serializedVersion: 2
      m_TileIndex: 80
      m_TileSpriteIndex: 80
      m_TileMatrixIndex: 0
      m_TileColorIndex: 0
      m_TileObjectToInstantiateIndex: 65535
      m_AllTileFlags: 1073741825
  - first: {x: 2, y: -12, z: 0}
    second:
      serializedVersion: 2
      m_TileIndex: 81
      m_TileSpriteIndex: 81
      m_TileMatrixIndex: 0
      m_TileColorIndex: 0
      m_TileObjectToInstantiateIndex: 65535
      m_AllTileFlags: 1073741825
  - first: {x: 3, y: -12, z: 0}
    second:
      serializedVersion: 2
      m_TileIndex: 82
      m_TileSpriteIndex: 82
      m_TileMatrixIndex: 0
      m_TileColorIndex: 0
      m_TileObjectToInstantiateIndex: 65535
      m_AllTileFlags: 1073741825
  - first: {x: 3, y: -8, z: 0}
    second:
      serializedVersion: 2
      m_TileIndex: 67
      m_TileSpriteIndex: 67
      m_TileMatrixIndex: 0
      m_TileColorIndex: 0
      m_TileObjectToInstantiateIndex: 65535
      m_AllTileFlags: 1073741825
  - first: {x: 4, y: -8, z: 0}
    second:
      serializedVersion: 2
      m_TileIndex: 68
      m_TileSpriteIndex: 68
      m_TileMatrixIndex: 0
      m_TileColorIndex: 0
      m_TileObjectToInstantiateIndex: 65535
      m_AllTileFlags: 1073741825
  - first: {x: 5, y: -8, z: 0}
    second:
      serializedVersion: 2
      m_TileIndex: 69
      m_TileSpriteIndex: 69
      m_TileMatrixIndex: 0
      m_TileColorIndex: 0
      m_TileObjectToInstantiateIndex: 65535
      m_AllTileFlags: 1073741825
  - first: {x: 6, y: -8, z: 0}
    second:
      serializedVersion: 2
      m_TileIndex: 70
      m_TileSpriteIndex: 70
      m_TileMatrixIndex: 0
      m_TileColorIndex: 0
      m_TileObjectToInstantiateIndex: 65535
      m_AllTileFlags: 1073741825
  - first: {x: 7, y: -8, z: 0}
    second:
      serializedVersion: 2
      m_TileIndex: 71
      m_TileSpriteIndex: 71
      m_TileMatrixIndex: 0
      m_TileColorIndex: 0
      m_TileObjectToInstantiateIndex: 65535
      m_AllTileFlags: 1073741825
  - first: {x: 8, y: -8, z: 0}
    second:
      serializedVersion: 2
      m_TileIndex: 72
      m_TileSpriteIndex: 72
      m_TileMatrixIndex: 0
      m_TileColorIndex: 0
      m_TileObjectToInstantiateIndex: 65535
      m_AllTileFlags: 1073741825
  - first: {x: 9, y: -8, z: 0}
    second:
      serializedVersion: 2
      m_TileIndex: 73
      m_TileSpriteIndex: 73
      m_TileMatrixIndex: 0
      m_TileColorIndex: 0
      m_TileObjectToInstantiateIndex: 65535
      m_AllTileFlags: 1073741825
  - first: {x: 10, y: -8, z: 0}
    second:
      serializedVersion: 2
      m_TileIndex: 74
      m_TileSpriteIndex: 74
      m_TileMatrixIndex: 0
      m_TileColorIndex: 0
      m_TileObjectToInstantiateIndex: 65535
      m_AllTileFlags: 1073741825
  - first: {x: 3, y: -7, z: 0}
    second:
      serializedVersion: 2
      m_TileIndex: 2
      m_TileSpriteIndex: 2
      m_TileMatrixIndex: 0
      m_TileColorIndex: 0
      m_TileObjectToInstantiateIndex: 65535
      m_AllTileFlags: 1073741825
  - first: {x: 4, y: -7, z: 0}
    second:
      serializedVersion: 2
      m_TileIndex: 1
      m_TileSpriteIndex: 1
      m_TileMatrixIndex: 0
      m_TileColorIndex: 0
      m_TileObjectToInstantiateIndex: 65535
      m_AllTileFlags: 1073741825
  - first: {x: 5, y: -7, z: 0}
    second:
      serializedVersion: 2
      m_TileIndex: 0
      m_TileSpriteIndex: 0
      m_TileMatrixIndex: 0
      m_TileColorIndex: 0
      m_TileObjectToInstantiateIndex: 65535
      m_AllTileFlags: 1073741825
  - first: {x: 6, y: -7, z: 0}
    second:
      serializedVersion: 2
      m_TileIndex: 62
      m_TileSpriteIndex: 62
      m_TileMatrixIndex: 0
      m_TileColorIndex: 0
      m_TileObjectToInstantiateIndex: 65535
      m_AllTileFlags: 1073741825
  - first: {x: 7, y: -7, z: 0}
    second:
      serializedVersion: 2
      m_TileIndex: 63
      m_TileSpriteIndex: 63
      m_TileMatrixIndex: 0
      m_TileColorIndex: 0
      m_TileObjectToInstantiateIndex: 65535
      m_AllTileFlags: 1073741825
  - first: {x: 8, y: -7, z: 0}
    second:
      serializedVersion: 2
      m_TileIndex: 64
      m_TileSpriteIndex: 64
      m_TileMatrixIndex: 0
      m_TileColorIndex: 0
      m_TileObjectToInstantiateIndex: 65535
      m_AllTileFlags: 1073741825
  - first: {x: 9, y: -7, z: 0}
    second:
      serializedVersion: 2
      m_TileIndex: 65
      m_TileSpriteIndex: 65
      m_TileMatrixIndex: 0
      m_TileColorIndex: 0
      m_TileObjectToInstantiateIndex: 65535
      m_AllTileFlags: 1073741825
  - first: {x: 10, y: -7, z: 0}
    second:
      serializedVersion: 2
      m_TileIndex: 66
      m_TileSpriteIndex: 66
      m_TileMatrixIndex: 0
      m_TileColorIndex: 0
      m_TileObjectToInstantiateIndex: 65535
      m_AllTileFlags: 1073741825
  - first: {x: 3, y: -6, z: 0}
    second:
      serializedVersion: 2
      m_TileIndex: 18
      m_TileSpriteIndex: 18
      m_TileMatrixIndex: 0
      m_TileColorIndex: 0
      m_TileObjectToInstantiateIndex: 65535
      m_AllTileFlags: 1073741825
  - first: {x: 4, y: -6, z: 0}
    second:
      serializedVersion: 2
      m_TileIndex: 17
      m_TileSpriteIndex: 17
      m_TileMatrixIndex: 0
      m_TileColorIndex: 0
      m_TileObjectToInstantiateIndex: 65535
      m_AllTileFlags: 1073741825
  - first: {x: 5, y: -6, z: 0}
    second:
      serializedVersion: 2
      m_TileIndex: 16
      m_TileSpriteIndex: 16
      m_TileMatrixIndex: 0
      m_TileColorIndex: 0
      m_TileObjectToInstantiateIndex: 65535
      m_AllTileFlags: 1073741825
  - first: {x: 6, y: -6, z: 0}
    second:
      serializedVersion: 2
      m_TileIndex: 15
      m_TileSpriteIndex: 15
      m_TileMatrixIndex: 0
      m_TileColorIndex: 0
      m_TileObjectToInstantiateIndex: 65535
      m_AllTileFlags: 1073741825
  - first: {x: 7, y: -6, z: 0}
    second:
      serializedVersion: 2
      m_TileIndex: 10
      m_TileSpriteIndex: 10
      m_TileMatrixIndex: 0
      m_TileColorIndex: 0
      m_TileObjectToInstantiateIndex: 65535
      m_AllTileFlags: 1073741825
  - first: {x: 8, y: -6, z: 0}
    second:
      serializedVersion: 2
      m_TileIndex: 9
      m_TileSpriteIndex: 9
      m_TileMatrixIndex: 0
      m_TileColorIndex: 0
      m_TileObjectToInstantiateIndex: 65535
      m_AllTileFlags: 1073741825
  - first: {x: 9, y: -6, z: 0}
    second:
      serializedVersion: 2
      m_TileIndex: 8
      m_TileSpriteIndex: 8
      m_TileMatrixIndex: 0
      m_TileColorIndex: 0
      m_TileObjectToInstantiateIndex: 65535
      m_AllTileFlags: 1073741825
  - first: {x: 10, y: -6, z: 0}
    second:
      serializedVersion: 2
      m_TileIndex: 7
      m_TileSpriteIndex: 7
      m_TileMatrixIndex: 0
      m_TileColorIndex: 0
      m_TileObjectToInstantiateIndex: 65535
      m_AllTileFlags: 1073741825
  - first: {x: 3, y: -5, z: 0}
    second:
      serializedVersion: 2
      m_TileIndex: 29
      m_TileSpriteIndex: 29
      m_TileMatrixIndex: 0
      m_TileColorIndex: 0
      m_TileObjectToInstantiateIndex: 65535
      m_AllTileFlags: 1073741825
  - first: {x: 4, y: -5, z: 0}
    second:
      serializedVersion: 2
      m_TileIndex: 28
      m_TileSpriteIndex: 28
      m_TileMatrixIndex: 0
      m_TileColorIndex: 0
      m_TileObjectToInstantiateIndex: 65535
      m_AllTileFlags: 1073741825
  - first: {x: 5, y: -5, z: 0}
    second:
      serializedVersion: 2
      m_TileIndex: 24
      m_TileSpriteIndex: 24
      m_TileMatrixIndex: 0
      m_TileColorIndex: 0
      m_TileObjectToInstantiateIndex: 65535
      m_AllTileFlags: 1073741825
  - first: {x: 8, y: -5, z: 0}
    second:
      serializedVersion: 2
      m_TileIndex: 23
      m_TileSpriteIndex: 23
      m_TileMatrixIndex: 0
      m_TileColorIndex: 0
      m_TileObjectToInstantiateIndex: 65535
      m_AllTileFlags: 1073741825
  - first: {x: 9, y: -5, z: 0}
    second:
      serializedVersion: 2
      m_TileIndex: 22
      m_TileSpriteIndex: 22
      m_TileMatrixIndex: 0
      m_TileColorIndex: 0
      m_TileObjectToInstantiateIndex: 65535
      m_AllTileFlags: 1073741825
  - first: {x: 10, y: -5, z: 0}
    second:
      serializedVersion: 2
      m_TileIndex: 21
      m_TileSpriteIndex: 21
      m_TileMatrixIndex: 0
      m_TileColorIndex: 0
      m_TileObjectToInstantiateIndex: 65535
      m_AllTileFlags: 1073741825
  - first: {x: 32, y: -5, z: 0}
    second:
      serializedVersion: 2
      m_TileIndex: 134
      m_TileSpriteIndex: 134
      m_TileMatrixIndex: 0
      m_TileColorIndex: 0
      m_TileObjectToInstantiateIndex: 65535
      m_AllTileFlags: 1073741825
  - first: {x: 3, y: -4, z: 0}
    second:
      serializedVersion: 2
      m_TileIndex: 36
      m_TileSpriteIndex: 36
      m_TileMatrixIndex: 0
      m_TileColorIndex: 0
      m_TileObjectToInstantiateIndex: 65535
      m_AllTileFlags: 1073741825
  - first: {x: 4, y: -4, z: 0}
    second:
      serializedVersion: 2
      m_TileIndex: 35
      m_TileSpriteIndex: 35
      m_TileMatrixIndex: 0
      m_TileColorIndex: 0
      m_TileObjectToInstantiateIndex: 65535
      m_AllTileFlags: 1073741825
  - first: {x: 5, y: -4, z: 0}
    second:
      serializedVersion: 2
      m_TileIndex: 34
      m_TileSpriteIndex: 34
      m_TileMatrixIndex: 0
      m_TileColorIndex: 0
      m_TileObjectToInstantiateIndex: 65535
      m_AllTileFlags: 1073741825
  - first: {x: 7, y: -4, z: 0}
    second:
      serializedVersion: 2
      m_TileIndex: 33
      m_TileSpriteIndex: 33
      m_TileMatrixIndex: 0
      m_TileColorIndex: 0
      m_TileObjectToInstantiateIndex: 65535
      m_AllTileFlags: 1073741825
  - first: {x: 8, y: -4, z: 0}
    second:
      serializedVersion: 2
      m_TileIndex: 32
      m_TileSpriteIndex: 32
      m_TileMatrixIndex: 0
      m_TileColorIndex: 0
      m_TileObjectToInstantiateIndex: 65535
      m_AllTileFlags: 1073741825
  - first: {x: 9, y: -4, z: 0}
    second:
      serializedVersion: 2
      m_TileIndex: 31
      m_TileSpriteIndex: 31
      m_TileMatrixIndex: 0
      m_TileColorIndex: 0
      m_TileObjectToInstantiateIndex: 65535
      m_AllTileFlags: 1073741825
  - first: {x: 10, y: -4, z: 0}
    second:
      serializedVersion: 2
      m_TileIndex: 30
      m_TileSpriteIndex: 30
      m_TileMatrixIndex: 0
      m_TileColorIndex: 0
      m_TileObjectToInstantiateIndex: 65535
      m_AllTileFlags: 1073741825
  - first: {x: 3, y: -3, z: 0}
    second:
      serializedVersion: 2
      m_TileIndex: 42
      m_TileSpriteIndex: 42
      m_TileMatrixIndex: 0
      m_TileColorIndex: 0
      m_TileObjectToInstantiateIndex: 65535
      m_AllTileFlags: 1073741825
  - first: {x: 4, y: -3, z: 0}
    second:
      serializedVersion: 2
      m_TileIndex: 41
      m_TileSpriteIndex: 41
      m_TileMatrixIndex: 0
      m_TileColorIndex: 0
      m_TileObjectToInstantiateIndex: 65535
      m_AllTileFlags: 1073741825
  - first: {x: 5, y: -3, z: 0}
    second:
      serializedVersion: 2
      m_TileIndex: 40
      m_TileSpriteIndex: 40
      m_TileMatrixIndex: 0
      m_TileColorIndex: 0
      m_TileObjectToInstantiateIndex: 65535
      m_AllTileFlags: 1073741825
  - first: {x: 8, y: -3, z: 0}
    second:
      serializedVersion: 2
      m_TileIndex: 39
      m_TileSpriteIndex: 39
      m_TileMatrixIndex: 0
      m_TileColorIndex: 0
      m_TileObjectToInstantiateIndex: 65535
      m_AllTileFlags: 1073741825
  - first: {x: 9, y: -3, z: 0}
    second:
      serializedVersion: 2
      m_TileIndex: 38
      m_TileSpriteIndex: 38
      m_TileMatrixIndex: 0
      m_TileColorIndex: 0
      m_TileObjectToInstantiateIndex: 65535
      m_AllTileFlags: 1073741825
  - first: {x: 10, y: -3, z: 0}
    second:
      serializedVersion: 2
      m_TileIndex: 37
      m_TileSpriteIndex: 37
      m_TileMatrixIndex: 0
      m_TileColorIndex: 0
      m_TileObjectToInstantiateIndex: 65535
      m_AllTileFlags: 1073741825
  - first: {x: -7, y: -2, z: 0}
    second:
      serializedVersion: 2
      m_TileIndex: 61
      m_TileSpriteIndex: 61
      m_TileMatrixIndex: 0
      m_TileColorIndex: 0
      m_TileObjectToInstantiateIndex: 65535
      m_AllTileFlags: 1073741825
  - first: {x: -6, y: -2, z: 0}
    second:
      serializedVersion: 2
      m_TileIndex: 25
      m_TileSpriteIndex: 25
      m_TileMatrixIndex: 0
      m_TileColorIndex: 0
      m_TileObjectToInstantiateIndex: 65535
      m_AllTileFlags: 1073741825
  - first: {x: -5, y: -2, z: 0}
    second:
      serializedVersion: 2
      m_TileIndex: 26
      m_TileSpriteIndex: 26
      m_TileMatrixIndex: 0
      m_TileColorIndex: 0
      m_TileObjectToInstantiateIndex: 65535
      m_AllTileFlags: 1073741825
  - first: {x: -4, y: -2, z: 0}
    second:
      serializedVersion: 2
      m_TileIndex: 27
      m_TileSpriteIndex: 27
      m_TileMatrixIndex: 0
      m_TileColorIndex: 0
      m_TileObjectToInstantiateIndex: 65535
      m_AllTileFlags: 1073741825
  - first: {x: 3, y: -2, z: 0}
    second:
      serializedVersion: 2
      m_TileIndex: 50
      m_TileSpriteIndex: 50
      m_TileMatrixIndex: 0
      m_TileColorIndex: 0
      m_TileObjectToInstantiateIndex: 65535
      m_AllTileFlags: 1073741825
  - first: {x: 4, y: -2, z: 0}
    second:
      serializedVersion: 2
      m_TileIndex: 49
      m_TileSpriteIndex: 49
      m_TileMatrixIndex: 0
      m_TileColorIndex: 0
      m_TileObjectToInstantiateIndex: 65535
      m_AllTileFlags: 1073741825
  - first: {x: 5, y: -2, z: 0}
    second:
      serializedVersion: 2
      m_TileIndex: 48
      m_TileSpriteIndex: 48
      m_TileMatrixIndex: 0
      m_TileColorIndex: 0
      m_TileObjectToInstantiateIndex: 65535
      m_AllTileFlags: 1073741825
  - first: {x: 6, y: -2, z: 0}
    second:
      serializedVersion: 2
      m_TileIndex: 47
      m_TileSpriteIndex: 47
      m_TileMatrixIndex: 0
      m_TileColorIndex: 0
      m_TileObjectToInstantiateIndex: 65535
      m_AllTileFlags: 1073741825
  - first: {x: 7, y: -2, z: 0}
    second:
      serializedVersion: 2
      m_TileIndex: 46
      m_TileSpriteIndex: 46
      m_TileMatrixIndex: 0
      m_TileColorIndex: 0
      m_TileObjectToInstantiateIndex: 65535
      m_AllTileFlags: 1073741825
  - first: {x: 8, y: -2, z: 0}
    second:
      serializedVersion: 2
      m_TileIndex: 45
      m_TileSpriteIndex: 45
      m_TileMatrixIndex: 0
      m_TileColorIndex: 0
      m_TileObjectToInstantiateIndex: 65535
      m_AllTileFlags: 1073741825
  - first: {x: 9, y: -2, z: 0}
    second:
      serializedVersion: 2
      m_TileIndex: 44
      m_TileSpriteIndex: 44
      m_TileMatrixIndex: 0
      m_TileColorIndex: 0
      m_TileObjectToInstantiateIndex: 65535
      m_AllTileFlags: 1073741825
  - first: {x: 10, y: -2, z: 0}
    second:
      serializedVersion: 2
      m_TileIndex: 43
      m_TileSpriteIndex: 43
      m_TileMatrixIndex: 0
      m_TileColorIndex: 0
      m_TileObjectToInstantiateIndex: 65535
      m_AllTileFlags: 1073741825
  - first: {x: -7, y: -1, z: 0}
    second:
      serializedVersion: 2
      m_TileIndex: 59
      m_TileSpriteIndex: 59
      m_TileMatrixIndex: 0
      m_TileColorIndex: 0
      m_TileObjectToInstantiateIndex: 65535
      m_AllTileFlags: 1073741825
  - first: {x: -6, y: -1, z: 0}
    second:
      serializedVersion: 2
      m_TileIndex: 60
      m_TileSpriteIndex: 60
      m_TileMatrixIndex: 0
      m_TileColorIndex: 0
      m_TileObjectToInstantiateIndex: 65535
      m_AllTileFlags: 1073741825
  - first: {x: -5, y: -1, z: 0}
    second:
      serializedVersion: 2
      m_TileIndex: 19
      m_TileSpriteIndex: 19
      m_TileMatrixIndex: 0
      m_TileColorIndex: 0
      m_TileObjectToInstantiateIndex: 65535
      m_AllTileFlags: 1073741825
  - first: {x: -4, y: -1, z: 0}
    second:
      serializedVersion: 2
      m_TileIndex: 20
      m_TileSpriteIndex: 20
      m_TileMatrixIndex: 0
      m_TileColorIndex: 0
      m_TileObjectToInstantiateIndex: 65535
      m_AllTileFlags: 1073741825
  - first: {x: 3, y: -1, z: 0}
    second:
      serializedVersion: 2
      m_TileIndex: 58
      m_TileSpriteIndex: 58
      m_TileMatrixIndex: 0
      m_TileColorIndex: 0
      m_TileObjectToInstantiateIndex: 65535
      m_AllTileFlags: 1073741825
  - first: {x: 4, y: -1, z: 0}
    second:
      serializedVersion: 2
      m_TileIndex: 57
      m_TileSpriteIndex: 57
      m_TileMatrixIndex: 0
      m_TileColorIndex: 0
      m_TileObjectToInstantiateIndex: 65535
      m_AllTileFlags: 1073741825
  - first: {x: 5, y: -1, z: 0}
    second:
      serializedVersion: 2
      m_TileIndex: 56
      m_TileSpriteIndex: 56
      m_TileMatrixIndex: 0
      m_TileColorIndex: 0
      m_TileObjectToInstantiateIndex: 65535
      m_AllTileFlags: 1073741825
  - first: {x: 6, y: -1, z: 0}
    second:
      serializedVersion: 2
      m_TileIndex: 55
      m_TileSpriteIndex: 55
      m_TileMatrixIndex: 0
      m_TileColorIndex: 0
      m_TileObjectToInstantiateIndex: 65535
      m_AllTileFlags: 1073741825
  - first: {x: 7, y: -1, z: 0}
    second:
      serializedVersion: 2
      m_TileIndex: 54
      m_TileSpriteIndex: 54
      m_TileMatrixIndex: 0
      m_TileColorIndex: 0
      m_TileObjectToInstantiateIndex: 65535
      m_AllTileFlags: 1073741825
  - first: {x: 8, y: -1, z: 0}
    second:
      serializedVersion: 2
      m_TileIndex: 53
      m_TileSpriteIndex: 53
      m_TileMatrixIndex: 0
      m_TileColorIndex: 0
      m_TileObjectToInstantiateIndex: 65535
      m_AllTileFlags: 1073741825
  - first: {x: 9, y: -1, z: 0}
    second:
      serializedVersion: 2
      m_TileIndex: 52
      m_TileSpriteIndex: 52
      m_TileMatrixIndex: 0
      m_TileColorIndex: 0
      m_TileObjectToInstantiateIndex: 65535
      m_AllTileFlags: 1073741825
  - first: {x: 10, y: -1, z: 0}
    second:
      serializedVersion: 2
      m_TileIndex: 51
      m_TileSpriteIndex: 51
      m_TileMatrixIndex: 0
      m_TileColorIndex: 0
      m_TileObjectToInstantiateIndex: 65535
      m_AllTileFlags: 1073741825
  - first: {x: -7, y: 0, z: 0}
    second:
      serializedVersion: 2
      m_TileIndex: 11
      m_TileSpriteIndex: 11
      m_TileMatrixIndex: 0
      m_TileColorIndex: 0
      m_TileObjectToInstantiateIndex: 65535
      m_AllTileFlags: 1073741825
  - first: {x: -6, y: 0, z: 0}
    second:
      serializedVersion: 2
      m_TileIndex: 12
      m_TileSpriteIndex: 12
      m_TileMatrixIndex: 0
      m_TileColorIndex: 0
      m_TileObjectToInstantiateIndex: 65535
      m_AllTileFlags: 1073741825
  - first: {x: -5, y: 0, z: 0}
    second:
      serializedVersion: 2
      m_TileIndex: 13
      m_TileSpriteIndex: 13
      m_TileMatrixIndex: 0
      m_TileColorIndex: 0
      m_TileObjectToInstantiateIndex: 65535
      m_AllTileFlags: 1073741825
  - first: {x: -4, y: 0, z: 0}
    second:
      serializedVersion: 2
      m_TileIndex: 14
      m_TileSpriteIndex: 14
      m_TileMatrixIndex: 0
      m_TileColorIndex: 0
      m_TileObjectToInstantiateIndex: 65535
      m_AllTileFlags: 1073741825
  - first: {x: -7, y: 1, z: 0}
    second:
      serializedVersion: 2
      m_TileIndex: 3
      m_TileSpriteIndex: 3
      m_TileMatrixIndex: 0
      m_TileColorIndex: 0
      m_TileObjectToInstantiateIndex: 65535
      m_AllTileFlags: 1073741825
  - first: {x: -6, y: 1, z: 0}
    second:
      serializedVersion: 2
      m_TileIndex: 4
      m_TileSpriteIndex: 4
      m_TileMatrixIndex: 0
      m_TileColorIndex: 0
      m_TileObjectToInstantiateIndex: 65535
      m_AllTileFlags: 1073741825
  - first: {x: -5, y: 1, z: 0}
    second:
      serializedVersion: 2
      m_TileIndex: 5
      m_TileSpriteIndex: 5
      m_TileMatrixIndex: 0
      m_TileColorIndex: 0
      m_TileObjectToInstantiateIndex: 65535
      m_AllTileFlags: 1073741825
  - first: {x: -4, y: 1, z: 0}
    second:
      serializedVersion: 2
      m_TileIndex: 6
      m_TileSpriteIndex: 6
      m_TileMatrixIndex: 0
      m_TileColorIndex: 0
      m_TileObjectToInstantiateIndex: 65535
      m_AllTileFlags: 1073741825
  m_AnimatedTiles: {}
  m_TileAssetArray:
  - m_RefCount: 1
    m_Data: {fileID: 11400000, guid: 28f4a6b26dca4ea42986afd4dbd45413, type: 2}
  - m_RefCount: 1
    m_Data: {fileID: 11400000, guid: 6fe474f6137ce1a4c8835569a467e1ca, type: 2}
  - m_RefCount: 1
    m_Data: {fileID: 11400000, guid: 2e88cec745f576346bf08700f587a8a8, type: 2}
  - m_RefCount: 1
    m_Data: {fileID: 11400000, guid: 2889ea212e3f70344902f1d2ee36fd7f, type: 2}
  - m_RefCount: 1
    m_Data: {fileID: 11400000, guid: 742ef5ed61bb39c4595e3d8938873f58, type: 2}
  - m_RefCount: 1
    m_Data: {fileID: 11400000, guid: 8bfe90793000d1e4a9bcb1224b188895, type: 2}
  - m_RefCount: 1
    m_Data: {fileID: 11400000, guid: 04afa296ef4683e4a947da06669c7d0e, type: 2}
  - m_RefCount: 1
    m_Data: {fileID: 11400000, guid: 027279d0a22672d47a81c47af72ce22e, type: 2}
  - m_RefCount: 1
    m_Data: {fileID: 11400000, guid: c86a59f01ba4fd14cb713eb064bc958d, type: 2}
  - m_RefCount: 1
    m_Data: {fileID: 11400000, guid: 138fdd4ff5133c142a1653beb41ca874, type: 2}
  - m_RefCount: 1
    m_Data: {fileID: 11400000, guid: b228532f3de0eeb49871599b4d818dc0, type: 2}
  - m_RefCount: 1
    m_Data: {fileID: 11400000, guid: 158772ce6de312248a696a47ef55b932, type: 2}
  - m_RefCount: 1
    m_Data: {fileID: 11400000, guid: 6b0265d3d15ad944c9a38f173ee7a31b, type: 2}
  - m_RefCount: 1
    m_Data: {fileID: 11400000, guid: bf3f84e975c4ef04ba530dc494f2cd9d, type: 2}
  - m_RefCount: 1
    m_Data: {fileID: 11400000, guid: 633cfd86ebe87b040ae01f42ee0047f2, type: 2}
  - m_RefCount: 1
    m_Data: {fileID: 11400000, guid: ec2ca6cca4c43764fb2b207e830e052b, type: 2}
  - m_RefCount: 1
    m_Data: {fileID: 11400000, guid: 5747796ac523c15408f891d78f357991, type: 2}
  - m_RefCount: 1
    m_Data: {fileID: 11400000, guid: b3e16929b809f124cba98e6d184225a9, type: 2}
  - m_RefCount: 1
    m_Data: {fileID: 11400000, guid: 00913fc5fef9adf4ebcdd73955a8bfaf, type: 2}
  - m_RefCount: 1
    m_Data: {fileID: 11400000, guid: 7bc1f4cacf4114846826d9889736452c, type: 2}
  - m_RefCount: 1
    m_Data: {fileID: 11400000, guid: 0e585b4ff9c72024fb8557ff259e3a23, type: 2}
  - m_RefCount: 1
    m_Data: {fileID: 11400000, guid: c9e8e9fd12e3ed14d95e837f2b76b51c, type: 2}
  - m_RefCount: 1
    m_Data: {fileID: 11400000, guid: 689f4d49ac784dc4a9efd524dd8d16f0, type: 2}
  - m_RefCount: 1
    m_Data: {fileID: 11400000, guid: 409a468d637540b4e87f8afe537ff1de, type: 2}
  - m_RefCount: 1
    m_Data: {fileID: 11400000, guid: 2c14ebe0c0aa6d34b99705dd1495cea1, type: 2}
  - m_RefCount: 1
    m_Data: {fileID: 11400000, guid: b05fadb8d1e298c429ebfb5d0892f236, type: 2}
  - m_RefCount: 1
    m_Data: {fileID: 11400000, guid: 26cff92560e93c74c8c3727c4eaa850c, type: 2}
  - m_RefCount: 1
    m_Data: {fileID: 11400000, guid: 872617127c9b9024c98cd7b87843f0bc, type: 2}
  - m_RefCount: 1
    m_Data: {fileID: 11400000, guid: 499f7877f8fbc8143bf27ce40e2580af, type: 2}
  - m_RefCount: 1
    m_Data: {fileID: 11400000, guid: 355a9692774e8334d8a4674c5906ee31, type: 2}
  - m_RefCount: 1
    m_Data: {fileID: 11400000, guid: 5b541c81d1e902f4aa7506422b20bfae, type: 2}
  - m_RefCount: 1
    m_Data: {fileID: 11400000, guid: 57fd8da14237d3140a8cb4601051a0d9, type: 2}
  - m_RefCount: 1
    m_Data: {fileID: 11400000, guid: 49aac9095627bbd46babe90fe9dfd0d7, type: 2}
  - m_RefCount: 1
    m_Data: {fileID: 11400000, guid: a112c023c5f0a854ea3af2bb08c2583d, type: 2}
  - m_RefCount: 1
    m_Data: {fileID: 11400000, guid: 6ed77cc0034a78d458f8558b884b3f31, type: 2}
  - m_RefCount: 1
    m_Data: {fileID: 11400000, guid: c13475bd48585804fbdaeb21a022da94, type: 2}
  - m_RefCount: 1
    m_Data: {fileID: 11400000, guid: dc42be688e9b6544585a6d606221a876, type: 2}
  - m_RefCount: 1
    m_Data: {fileID: 11400000, guid: 9ae4c5b5ea6b09b4b9520c85c84bc89e, type: 2}
  - m_RefCount: 1
    m_Data: {fileID: 11400000, guid: 5f86125c4ef66474fb2c23c534a56f91, type: 2}
  - m_RefCount: 1
    m_Data: {fileID: 11400000, guid: 2f79417e3a2061945ba85f72b26cee01, type: 2}
  - m_RefCount: 1
    m_Data: {fileID: 11400000, guid: c2c83b32e4e29ba4f8f24da60ead3c0c, type: 2}
  - m_RefCount: 1
    m_Data: {fileID: 11400000, guid: f60f32ea55d3df5428364b259f3f1a56, type: 2}
  - m_RefCount: 1
    m_Data: {fileID: 11400000, guid: 634ca310538d4f44f865b87419e6153a, type: 2}
  - m_RefCount: 1
    m_Data: {fileID: 11400000, guid: 2abed3a032dff624ea2ff49c2103c666, type: 2}
  - m_RefCount: 1
    m_Data: {fileID: 11400000, guid: a1c88df6cefbcc64da2fdddc923bdc3c, type: 2}
  - m_RefCount: 1
    m_Data: {fileID: 11400000, guid: dc7eb24149d574b40adf232db5f9046e, type: 2}
  - m_RefCount: 1
    m_Data: {fileID: 11400000, guid: 87a29ea0309cc8e46ad2a4d1a02be6b6, type: 2}
  - m_RefCount: 1
    m_Data: {fileID: 11400000, guid: 8939c134ba22b5b4183b7fe8723c0da7, type: 2}
  - m_RefCount: 1
    m_Data: {fileID: 11400000, guid: 570fffd60b0ee7f488c759c20043da01, type: 2}
  - m_RefCount: 1
    m_Data: {fileID: 11400000, guid: bad370833918d0f4097a9a608dfa7912, type: 2}
  - m_RefCount: 1
    m_Data: {fileID: 11400000, guid: c1a6ae2cc43380d44b18ca597c7e6e4b, type: 2}
  - m_RefCount: 1
    m_Data: {fileID: 11400000, guid: e0911f8d60d1f2f44a33726ad29cfba2, type: 2}
  - m_RefCount: 1
    m_Data: {fileID: 11400000, guid: c7bab49993a98d343867cf88994e2612, type: 2}
  - m_RefCount: 1
    m_Data: {fileID: 11400000, guid: 2d56fdea6df119f4c8c32dc6bc8f4e26, type: 2}
  - m_RefCount: 1
    m_Data: {fileID: 11400000, guid: ed8e8ea1e2f76004bac46b10ce5024eb, type: 2}
  - m_RefCount: 1
    m_Data: {fileID: 11400000, guid: 1e557dec47acf984c8264d48da4ed9fd, type: 2}
  - m_RefCount: 1
    m_Data: {fileID: 11400000, guid: 3864afff1ab0c784988221687fcfd784, type: 2}
  - m_RefCount: 1
    m_Data: {fileID: 11400000, guid: a23f9af6df0ad3c4ea0e8b02718593b1, type: 2}
  - m_RefCount: 1
    m_Data: {fileID: 11400000, guid: 914b52cc882de19498bcef25a7e0de50, type: 2}
  - m_RefCount: 1
    m_Data: {fileID: 11400000, guid: d4ddc5b8219c50c42b601d8b5a298f08, type: 2}
  - m_RefCount: 1
    m_Data: {fileID: 11400000, guid: 6ddebc2140bc5d8418a5c165866cc541, type: 2}
  - m_RefCount: 1
    m_Data: {fileID: 11400000, guid: e4276937e89aa824199e02144a865f78, type: 2}
  - m_RefCount: 1
    m_Data: {fileID: 11400000, guid: 5d69bf6906b48f34b883a559e1ddeee7, type: 2}
  - m_RefCount: 1
    m_Data: {fileID: 11400000, guid: a441d819d50e5004a94c9e0f374bf6e9, type: 2}
  - m_RefCount: 1
    m_Data: {fileID: 11400000, guid: e1e1df4fbc53f4449bcaa7e5052fdea7, type: 2}
  - m_RefCount: 1
    m_Data: {fileID: 11400000, guid: bc46cb1b982ac31419694f52690248be, type: 2}
  - m_RefCount: 1
    m_Data: {fileID: 11400000, guid: 9483b22b8e73b9f4b8cc02fd31e27fb0, type: 2}
  - m_RefCount: 1
    m_Data: {fileID: 11400000, guid: 4e17d97338a8aa243b6bf96eedc67e34, type: 2}
  - m_RefCount: 1
    m_Data: {fileID: 11400000, guid: 6a4a3a92b67005b4b87525a0c005de65, type: 2}
  - m_RefCount: 1
    m_Data: {fileID: 11400000, guid: 76aed4c4ca772a546a332805eef65197, type: 2}
  - m_RefCount: 1
    m_Data: {fileID: 11400000, guid: 51479f8f78031674990b5926c76030f4, type: 2}
  - m_RefCount: 1
    m_Data: {fileID: 11400000, guid: fce640dbd00b73d41a9f9c530e92de4b, type: 2}
  - m_RefCount: 1
    m_Data: {fileID: 11400000, guid: 42377fe9965d91a42ba89ab91e7f052a, type: 2}
  - m_RefCount: 1
    m_Data: {fileID: 11400000, guid: 9f5ef09029c85ac4f95868a5f5dbca30, type: 2}
  - m_RefCount: 1
    m_Data: {fileID: 11400000, guid: 6940427c78f5286489e7c81e80206211, type: 2}
  - m_RefCount: 1
    m_Data: {fileID: 11400000, guid: a938e9aea58f60a409e195fe89a5a24a, type: 2}
  - m_RefCount: 1
    m_Data: {fileID: 11400000, guid: 318bce5c276a1874189e3f8f46e635c0, type: 2}
  - m_RefCount: 1
    m_Data: {fileID: 11400000, guid: 8d2af3244b48a60409e2523d4b41cf50, type: 2}
  - m_RefCount: 1
    m_Data: {fileID: 11400000, guid: 79193f95946f70a45a3fd30d24a02b12, type: 2}
  - m_RefCount: 1
    m_Data: {fileID: 11400000, guid: fff72511264ecaf46847e16e9b622860, type: 2}
  - m_RefCount: 1
    m_Data: {fileID: 11400000, guid: 6171b6034ed821a4bbc65effa0d54716, type: 2}
  - m_RefCount: 1
    m_Data: {fileID: 11400000, guid: a5b1149529952e845bfd61075d508cec, type: 2}
  - m_RefCount: 1
    m_Data: {fileID: 11400000, guid: 77e0422bf2e0e8846b17aa3f14c99e54, type: 2}
  - m_RefCount: 1
    m_Data: {fileID: 11400000, guid: 3221c9cab3912d44da9e63e93ec5b9f3, type: 2}
  - m_RefCount: 1
    m_Data: {fileID: 11400000, guid: 8d3234340c3a9434c8c1c8e3b9541771, type: 2}
  - m_RefCount: 1
    m_Data: {fileID: 11400000, guid: 1565849cc48119f4b81892df0431e8bd, type: 2}
  - m_RefCount: 1
    m_Data: {fileID: 11400000, guid: e9e05d0255a673043abdfeaddb35c688, type: 2}
  - m_RefCount: 1
    m_Data: {fileID: 11400000, guid: 1a6bdf857f1baa446b9823c9913a900f, type: 2}
  - m_RefCount: 1
    m_Data: {fileID: 11400000, guid: 033cce95b7c28a94c9f7ccdec96d21ad, type: 2}
  - m_RefCount: 1
    m_Data: {fileID: 11400000, guid: 5f46ca38780e5ce4f9276e8e45e5805d, type: 2}
  - m_RefCount: 1
    m_Data: {fileID: 11400000, guid: 364afa9b319d858469a285d158bce60e, type: 2}
  - m_RefCount: 1
    m_Data: {fileID: 11400000, guid: 1aefddb489c726744a5e6fe53d3c59ad, type: 2}
  - m_RefCount: 1
    m_Data: {fileID: 11400000, guid: dafe158d08d680c47afab4d57fb9cd82, type: 2}
  - m_RefCount: 1
    m_Data: {fileID: 11400000, guid: 5bda2ff05e6f93d4f98fb483407ee562, type: 2}
  - m_RefCount: 1
    m_Data: {fileID: 11400000, guid: 5e050becc7edb70409cf22f9557dbd9c, type: 2}
  - m_RefCount: 1
    m_Data: {fileID: 11400000, guid: 7e4589e9dd2b6b242b0f6a6a4ed3411c, type: 2}
  - m_RefCount: 1
    m_Data: {fileID: 11400000, guid: cd1bb6a8ce6ee6f4088df0902e314549, type: 2}
  - m_RefCount: 1
    m_Data: {fileID: 11400000, guid: 746a903bddc77ab4db44d79589dd8012, type: 2}
  - m_RefCount: 1
    m_Data: {fileID: 11400000, guid: 5a7cd8c92b3b5a54f86f185c0ea21647, type: 2}
  - m_RefCount: 1
    m_Data: {fileID: 11400000, guid: e5219ccb891709f40b09f2a409530508, type: 2}
  - m_RefCount: 1
    m_Data: {fileID: 11400000, guid: 5ddb18f50d778394cbb70389efda9ec1, type: 2}
  - m_RefCount: 1
    m_Data: {fileID: 11400000, guid: 59803583fc4409948b00afced5aa9623, type: 2}
  - m_RefCount: 1
    m_Data: {fileID: 11400000, guid: 25e57d2ce030c5049bf8fdd902e15c5d, type: 2}
  - m_RefCount: 1
    m_Data: {fileID: 11400000, guid: f17e857b2abc4aa47ab942bf6efa51f6, type: 2}
  - m_RefCount: 1
    m_Data: {fileID: 11400000, guid: e34749a199ada6c4cb57ef56f2738ed6, type: 2}
  - m_RefCount: 1
    m_Data: {fileID: 11400000, guid: 99ad2ed8fb317834a91eab218e75975c, type: 2}
  - m_RefCount: 1
    m_Data: {fileID: 11400000, guid: 42b50725e8c0f78439d4f9e40a267356, type: 2}
  - m_RefCount: 1
    m_Data: {fileID: 11400000, guid: 676e78ac3094f0946b837f29090fac13, type: 2}
  - m_RefCount: 1
    m_Data: {fileID: 11400000, guid: dba0005366ca7e649a841e423c9f9a81, type: 2}
  - m_RefCount: 1
    m_Data: {fileID: 11400000, guid: ed38f22e65e56b94aa68752029fe16cb, type: 2}
  - m_RefCount: 1
    m_Data: {fileID: 11400000, guid: 25bc9518d4d926d42b03fc9972ce095c, type: 2}
  - m_RefCount: 1
    m_Data: {fileID: 11400000, guid: 4f6a742053427a243a99662deb46ebd5, type: 2}
  - m_RefCount: 1
    m_Data: {fileID: 11400000, guid: 74a76dda2658f7648b4114b795ced09a, type: 2}
  - m_RefCount: 1
    m_Data: {fileID: 11400000, guid: a090ae57745a9a34db8e424c6998afff, type: 2}
  - m_RefCount: 1
    m_Data: {fileID: 11400000, guid: 2279c5e41788e9c4382ae8bdcf0fa186, type: 2}
  - m_RefCount: 1
    m_Data: {fileID: 11400000, guid: 85d8faf04f60d5e40b8afdac1d097c3d, type: 2}
  - m_RefCount: 1
    m_Data: {fileID: 11400000, guid: 3e40e4e1cef9251498ab95bc09fcd854, type: 2}
  - m_RefCount: 1
    m_Data: {fileID: 11400000, guid: ae23c69e0dee13640b831edc68700876, type: 2}
  - m_RefCount: 1
    m_Data: {fileID: 11400000, guid: a5bc5c28663f81540bc2d00296f28629, type: 2}
  - m_RefCount: 1
    m_Data: {fileID: 11400000, guid: 1015d62c8e76b5843a2e47d28788842a, type: 2}
  - m_RefCount: 1
    m_Data: {fileID: 11400000, guid: e199812837edba44c9c4072016d00c92, type: 2}
  - m_RefCount: 1
    m_Data: {fileID: 11400000, guid: 19098c093e180da488cadee5eb8615ac, type: 2}
  - m_RefCount: 1
    m_Data: {fileID: 11400000, guid: 7ca472d939b7f4241b2954c22fec0451, type: 2}
  - m_RefCount: 1
    m_Data: {fileID: 11400000, guid: a9b32e97f73bdaf48ac18cd0e767bfef, type: 2}
  - m_RefCount: 1
    m_Data: {fileID: 11400000, guid: b594a8d56fe00b64b95898295fdca0a0, type: 2}
  - m_RefCount: 1
    m_Data: {fileID: 11400000, guid: a6390f2f3b656944abde4d8ea60b3263, type: 2}
  - m_RefCount: 1
    m_Data: {fileID: 11400000, guid: dab2f5fb9fccd3741b6d9b24caabf64b, type: 2}
  - m_RefCount: 1
    m_Data: {fileID: 11400000, guid: 9e3a171c5a06b524a9c479f9c85b6665, type: 2}
  - m_RefCount: 1
    m_Data: {fileID: 11400000, guid: da082b83f7aaeea4e970174d5a3e91d7, type: 2}
  - m_RefCount: 1
    m_Data: {fileID: 11400000, guid: 96593f7eeda344045a28d94fc688cbe3, type: 2}
  - m_RefCount: 1
    m_Data: {fileID: 11400000, guid: ddcf3a91ec9d6e744aef064b2de42a69, type: 2}
  - m_RefCount: 1
    m_Data: {fileID: 11400000, guid: 2fe185f618abc2b4cadc3bba0ccced8f, type: 2}
  - m_RefCount: 1
    m_Data: {fileID: 11400000, guid: ce36904cc81edc942b7a5f1627eb3959, type: 2}
  - m_RefCount: 1
    m_Data: {fileID: 11400000, guid: 87d3b96422458ec49aa6cc5256617664, type: 2}
  - m_RefCount: 1
    m_Data: {fileID: 11400000, guid: 149b2ba4dbf7ac54cbf0d8c81c6e1ecd, type: 2}
  - m_RefCount: 1
    m_Data: {fileID: 11400000, guid: 966f7aca2f8eaff4697c2d4ead89697e, type: 2}
  - m_RefCount: 1
    m_Data: {fileID: 11400000, guid: d2561dfa020f8d240bd201011eed3dea, type: 2}
  - m_RefCount: 1
    m_Data: {fileID: 11400000, guid: 7d29cb82382e3104ba18ca58e862a5b7, type: 2}
  - m_RefCount: 1
    m_Data: {fileID: 11400000, guid: 425f77b718a080b45aadee680300445a, type: 2}
  - m_RefCount: 1
    m_Data: {fileID: 11400000, guid: e440bb387c507eb4ab63077619c05b92, type: 2}
  - m_RefCount: 1
    m_Data: {fileID: 11400000, guid: 83094180e4592ad41bc8bc7e84d131c4, type: 2}
  - m_RefCount: 1
    m_Data: {fileID: 11400000, guid: 20ade1cc92b23484482dc36de0c6b3c8, type: 2}
  m_TileSpriteArray:
  - m_RefCount: 1
    m_Data: {fileID: -7491453382784347934, guid: 3cef57d038074e84ba9ddec58094fe54,
      type: 3}
  - m_RefCount: 1
    m_Data: {fileID: -8071350981594357772, guid: 3cef57d038074e84ba9ddec58094fe54,
      type: 3}
  - m_RefCount: 1
    m_Data: {fileID: -1173679065625151736, guid: 3cef57d038074e84ba9ddec58094fe54,
      type: 3}
  - m_RefCount: 1
    m_Data: {fileID: 7798693932262605472, guid: 01de934f9f74a7646a99097b571a57ce,
      type: 3}
  - m_RefCount: 1
    m_Data: {fileID: -6427635379560847210, guid: 01de934f9f74a7646a99097b571a57ce,
      type: 3}
  - m_RefCount: 1
    m_Data: {fileID: 1879502814526755472, guid: 01de934f9f74a7646a99097b571a57ce,
      type: 3}
  - m_RefCount: 1
    m_Data: {fileID: 219833882013313471, guid: 01de934f9f74a7646a99097b571a57ce, type: 3}
  - m_RefCount: 1
    m_Data: {fileID: 175781639876113287, guid: 3cef57d038074e84ba9ddec58094fe54, type: 3}
  - m_RefCount: 1
    m_Data: {fileID: -7615732130741139937, guid: 3cef57d038074e84ba9ddec58094fe54,
      type: 3}
  - m_RefCount: 1
    m_Data: {fileID: 159345550382829920, guid: 3cef57d038074e84ba9ddec58094fe54, type: 3}
  - m_RefCount: 1
    m_Data: {fileID: -5032512428775474435, guid: 3cef57d038074e84ba9ddec58094fe54,
      type: 3}
  - m_RefCount: 1
    m_Data: {fileID: 5829959408232144656, guid: 01de934f9f74a7646a99097b571a57ce,
      type: 3}
  - m_RefCount: 1
    m_Data: {fileID: 7322109111561562712, guid: 01de934f9f74a7646a99097b571a57ce,
      type: 3}
  - m_RefCount: 1
    m_Data: {fileID: -839588452248286258, guid: 01de934f9f74a7646a99097b571a57ce,
      type: 3}
  - m_RefCount: 1
    m_Data: {fileID: 6735870724283547837, guid: 01de934f9f74a7646a99097b571a57ce,
      type: 3}
  - m_RefCount: 1
    m_Data: {fileID: -3859901903498871631, guid: 3cef57d038074e84ba9ddec58094fe54,
      type: 3}
  - m_RefCount: 1
    m_Data: {fileID: -824687921909442273, guid: 3cef57d038074e84ba9ddec58094fe54,
      type: 3}
  - m_RefCount: 1
    m_Data: {fileID: -8937398861344984497, guid: 3cef57d038074e84ba9ddec58094fe54,
      type: 3}
  - m_RefCount: 1
    m_Data: {fileID: 925873033232313370, guid: 3cef57d038074e84ba9ddec58094fe54, type: 3}
  - m_RefCount: 1
    m_Data: {fileID: 8211764509254443914, guid: 01de934f9f74a7646a99097b571a57ce,
      type: 3}
  - m_RefCount: 1
    m_Data: {fileID: -4142154020424364173, guid: 01de934f9f74a7646a99097b571a57ce,
      type: 3}
  - m_RefCount: 1
    m_Data: {fileID: -6645113465604108325, guid: 3cef57d038074e84ba9ddec58094fe54,
      type: 3}
  - m_RefCount: 1
    m_Data: {fileID: -758587054641505056, guid: 3cef57d038074e84ba9ddec58094fe54,
      type: 3}
  - m_RefCount: 1
    m_Data: {fileID: 2305882874918129600, guid: 3cef57d038074e84ba9ddec58094fe54,
      type: 3}
  - m_RefCount: 1
    m_Data: {fileID: 2834466999358633309, guid: 3cef57d038074e84ba9ddec58094fe54,
      type: 3}
  - m_RefCount: 1
    m_Data: {fileID: -2177437833825867693, guid: 01de934f9f74a7646a99097b571a57ce,
      type: 3}
  - m_RefCount: 1
    m_Data: {fileID: -3374816772333790378, guid: 01de934f9f74a7646a99097b571a57ce,
      type: 3}
  - m_RefCount: 1
    m_Data: {fileID: -5503848669812476123, guid: 01de934f9f74a7646a99097b571a57ce,
      type: 3}
  - m_RefCount: 1
    m_Data: {fileID: -2045094931119525246, guid: 3cef57d038074e84ba9ddec58094fe54,
      type: 3}
  - m_RefCount: 1
    m_Data: {fileID: 4158152822093568698, guid: 3cef57d038074e84ba9ddec58094fe54,
      type: 3}
  - m_RefCount: 1
    m_Data: {fileID: -2166775679822674709, guid: 3cef57d038074e84ba9ddec58094fe54,
      type: 3}
  - m_RefCount: 1
    m_Data: {fileID: -366027621411717578, guid: 3cef57d038074e84ba9ddec58094fe54,
      type: 3}
  - m_RefCount: 1
    m_Data: {fileID: 3958692068941002139, guid: 3cef57d038074e84ba9ddec58094fe54,
      type: 3}
  - m_RefCount: 1
    m_Data: {fileID: 6372388290688691649, guid: 3cef57d038074e84ba9ddec58094fe54,
      type: 3}
  - m_RefCount: 1
    m_Data: {fileID: 455961326701779588, guid: 3cef57d038074e84ba9ddec58094fe54, type: 3}
  - m_RefCount: 1
    m_Data: {fileID: 4646620096511631893, guid: 3cef57d038074e84ba9ddec58094fe54,
      type: 3}
  - m_RefCount: 1
    m_Data: {fileID: -7752680391052080930, guid: 3cef57d038074e84ba9ddec58094fe54,
      type: 3}
  - m_RefCount: 1
    m_Data: {fileID: -9154126122114058370, guid: 3cef57d038074e84ba9ddec58094fe54,
      type: 3}
  - m_RefCount: 1
    m_Data: {fileID: -2863233070372355550, guid: 3cef57d038074e84ba9ddec58094fe54,
      type: 3}
  - m_RefCount: 1
    m_Data: {fileID: -3153655834476717565, guid: 3cef57d038074e84ba9ddec58094fe54,
      type: 3}
  - m_RefCount: 1
    m_Data: {fileID: -1534272070284871473, guid: 3cef57d038074e84ba9ddec58094fe54,
      type: 3}
  - m_RefCount: 1
    m_Data: {fileID: 3701171778827143627, guid: 3cef57d038074e84ba9ddec58094fe54,
      type: 3}
  - m_RefCount: 1
    m_Data: {fileID: -5857038443446448200, guid: 3cef57d038074e84ba9ddec58094fe54,
      type: 3}
  - m_RefCount: 1
    m_Data: {fileID: 2699133889581330514, guid: 3cef57d038074e84ba9ddec58094fe54,
      type: 3}
  - m_RefCount: 1
    m_Data: {fileID: 1004654635141998964, guid: 3cef57d038074e84ba9ddec58094fe54,
      type: 3}
  - m_RefCount: 1
    m_Data: {fileID: -7797293104891672761, guid: 3cef57d038074e84ba9ddec58094fe54,
      type: 3}
  - m_RefCount: 1
    m_Data: {fileID: -5048389283231757212, guid: 3cef57d038074e84ba9ddec58094fe54,
      type: 3}
  - m_RefCount: 1
    m_Data: {fileID: -1927603405852341243, guid: 3cef57d038074e84ba9ddec58094fe54,
      type: 3}
  - m_RefCount: 1
    m_Data: {fileID: -714013826762375331, guid: 3cef57d038074e84ba9ddec58094fe54,
      type: 3}
  - m_RefCount: 1
    m_Data: {fileID: -6004313105943613357, guid: 3cef57d038074e84ba9ddec58094fe54,
      type: 3}
  - m_RefCount: 1
    m_Data: {fileID: -3362975239387982853, guid: 3cef57d038074e84ba9ddec58094fe54,
      type: 3}
  - m_RefCount: 1
    m_Data: {fileID: 779464374832665320, guid: 3cef57d038074e84ba9ddec58094fe54, type: 3}
  - m_RefCount: 1
    m_Data: {fileID: 3427464074048245987, guid: 3cef57d038074e84ba9ddec58094fe54,
      type: 3}
  - m_RefCount: 1
    m_Data: {fileID: 9199622667024701150, guid: 3cef57d038074e84ba9ddec58094fe54,
      type: 3}
  - m_RefCount: 1
    m_Data: {fileID: -6265793708075237870, guid: 3cef57d038074e84ba9ddec58094fe54,
      type: 3}
  - m_RefCount: 1
    m_Data: {fileID: 8890600920806976301, guid: 3cef57d038074e84ba9ddec58094fe54,
      type: 3}
  - m_RefCount: 1
    m_Data: {fileID: -5585079127616860542, guid: 3cef57d038074e84ba9ddec58094fe54,
      type: 3}
  - m_RefCount: 1
    m_Data: {fileID: -5018304978137694349, guid: 3cef57d038074e84ba9ddec58094fe54,
      type: 3}
  - m_RefCount: 1
    m_Data: {fileID: -7540424373210603374, guid: 3cef57d038074e84ba9ddec58094fe54,
      type: 3}
  - m_RefCount: 1
    m_Data: {fileID: 6203052892448827985, guid: 01de934f9f74a7646a99097b571a57ce,
      type: 3}
  - m_RefCount: 1
    m_Data: {fileID: 8374054939895240049, guid: 01de934f9f74a7646a99097b571a57ce,
      type: 3}
  - m_RefCount: 1
    m_Data: {fileID: 8343803173295835288, guid: 01de934f9f74a7646a99097b571a57ce,
      type: 3}
  - m_RefCount: 1
    m_Data: {fileID: 5991865336653292661, guid: 3cef57d038074e84ba9ddec58094fe54,
      type: 3}
  - m_RefCount: 1
    m_Data: {fileID: -3935612339006206619, guid: 3cef57d038074e84ba9ddec58094fe54,
      type: 3}
  - m_RefCount: 1
    m_Data: {fileID: 9205390339257619037, guid: 3cef57d038074e84ba9ddec58094fe54,
      type: 3}
  - m_RefCount: 1
    m_Data: {fileID: -9166359541835206739, guid: 3cef57d038074e84ba9ddec58094fe54,
      type: 3}
  - m_RefCount: 1
    m_Data: {fileID: 5087548093166404925, guid: 3cef57d038074e84ba9ddec58094fe54,
      type: 3}
  - m_RefCount: 1
    m_Data: {fileID: 8706853474490934578, guid: 3cef57d038074e84ba9ddec58094fe54,
      type: 3}
  - m_RefCount: 1
    m_Data: {fileID: -1591880081540551327, guid: 3cef57d038074e84ba9ddec58094fe54,
      type: 3}
  - m_RefCount: 1
    m_Data: {fileID: -7741507572197439426, guid: 3cef57d038074e84ba9ddec58094fe54,
      type: 3}
  - m_RefCount: 1
    m_Data: {fileID: 7981486296181359544, guid: 3cef57d038074e84ba9ddec58094fe54,
      type: 3}
  - m_RefCount: 1
    m_Data: {fileID: -7910378778915439395, guid: 3cef57d038074e84ba9ddec58094fe54,
      type: 3}
  - m_RefCount: 1
    m_Data: {fileID: 3903667190510966476, guid: 3cef57d038074e84ba9ddec58094fe54,
      type: 3}
  - m_RefCount: 1
    m_Data: {fileID: 4704904437757268570, guid: 3cef57d038074e84ba9ddec58094fe54,
      type: 3}
  - m_RefCount: 1
    m_Data: {fileID: -4324603819338424492, guid: 3cef57d038074e84ba9ddec58094fe54,
      type: 3}
  - m_RefCount: 1
    m_Data: {fileID: 21300000, guid: 747f25e5b4f0ed34781b3364c07ef750, type: 3}
  - m_RefCount: 1
    m_Data: {fileID: 21300002, guid: 747f25e5b4f0ed34781b3364c07ef750, type: 3}
  - m_RefCount: 1
    m_Data: {fileID: 21300004, guid: 747f25e5b4f0ed34781b3364c07ef750, type: 3}
  - m_RefCount: 1
    m_Data: {fileID: 21300006, guid: 747f25e5b4f0ed34781b3364c07ef750, type: 3}
  - m_RefCount: 1
    m_Data: {fileID: 21300008, guid: 747f25e5b4f0ed34781b3364c07ef750, type: 3}
  - m_RefCount: 1
    m_Data: {fileID: 21300010, guid: 747f25e5b4f0ed34781b3364c07ef750, type: 3}
  - m_RefCount: 1
    m_Data: {fileID: 21300012, guid: 747f25e5b4f0ed34781b3364c07ef750, type: 3}
  - m_RefCount: 1
    m_Data: {fileID: 21300014, guid: 747f25e5b4f0ed34781b3364c07ef750, type: 3}
  - m_RefCount: 1
    m_Data: {fileID: 21300016, guid: 747f25e5b4f0ed34781b3364c07ef750, type: 3}
  - m_RefCount: 1
    m_Data: {fileID: 21300018, guid: 747f25e5b4f0ed34781b3364c07ef750, type: 3}
  - m_RefCount: 1
    m_Data: {fileID: 21300020, guid: 747f25e5b4f0ed34781b3364c07ef750, type: 3}
  - m_RefCount: 1
    m_Data: {fileID: 21300022, guid: 747f25e5b4f0ed34781b3364c07ef750, type: 3}
  - m_RefCount: 1
    m_Data: {fileID: 21300024, guid: 747f25e5b4f0ed34781b3364c07ef750, type: 3}
  - m_RefCount: 1
    m_Data: {fileID: 21300026, guid: 747f25e5b4f0ed34781b3364c07ef750, type: 3}
  - m_RefCount: 1
    m_Data: {fileID: 21300028, guid: 747f25e5b4f0ed34781b3364c07ef750, type: 3}
  - m_RefCount: 1
    m_Data: {fileID: 21300030, guid: 747f25e5b4f0ed34781b3364c07ef750, type: 3}
  - m_RefCount: 1
    m_Data: {fileID: 21300032, guid: 747f25e5b4f0ed34781b3364c07ef750, type: 3}
  - m_RefCount: 1
    m_Data: {fileID: 21300034, guid: 747f25e5b4f0ed34781b3364c07ef750, type: 3}
  - m_RefCount: 1
    m_Data: {fileID: 21300036, guid: 747f25e5b4f0ed34781b3364c07ef750, type: 3}
  - m_RefCount: 1
    m_Data: {fileID: 21300038, guid: 747f25e5b4f0ed34781b3364c07ef750, type: 3}
  - m_RefCount: 1
    m_Data: {fileID: 21300040, guid: 747f25e5b4f0ed34781b3364c07ef750, type: 3}
  - m_RefCount: 1
    m_Data: {fileID: 21300042, guid: 747f25e5b4f0ed34781b3364c07ef750, type: 3}
  - m_RefCount: 1
    m_Data: {fileID: 21300044, guid: 747f25e5b4f0ed34781b3364c07ef750, type: 3}
  - m_RefCount: 1
    m_Data: {fileID: 21300046, guid: 747f25e5b4f0ed34781b3364c07ef750, type: 3}
  - m_RefCount: 1
    m_Data: {fileID: 21300048, guid: 747f25e5b4f0ed34781b3364c07ef750, type: 3}
  - m_RefCount: 1
    m_Data: {fileID: 21300050, guid: 747f25e5b4f0ed34781b3364c07ef750, type: 3}
  - m_RefCount: 1
    m_Data: {fileID: 21300052, guid: 747f25e5b4f0ed34781b3364c07ef750, type: 3}
  - m_RefCount: 1
    m_Data: {fileID: 21300054, guid: 747f25e5b4f0ed34781b3364c07ef750, type: 3}
  - m_RefCount: 1
    m_Data: {fileID: 21300056, guid: 747f25e5b4f0ed34781b3364c07ef750, type: 3}
  - m_RefCount: 1
    m_Data: {fileID: 21300058, guid: 747f25e5b4f0ed34781b3364c07ef750, type: 3}
  - m_RefCount: 1
    m_Data: {fileID: 21300060, guid: 747f25e5b4f0ed34781b3364c07ef750, type: 3}
  - m_RefCount: 1
    m_Data: {fileID: 21300062, guid: 747f25e5b4f0ed34781b3364c07ef750, type: 3}
  - m_RefCount: 1
    m_Data: {fileID: 21300064, guid: 747f25e5b4f0ed34781b3364c07ef750, type: 3}
  - m_RefCount: 1
    m_Data: {fileID: 21300066, guid: 747f25e5b4f0ed34781b3364c07ef750, type: 3}
  - m_RefCount: 1
    m_Data: {fileID: 21300068, guid: 747f25e5b4f0ed34781b3364c07ef750, type: 3}
  - m_RefCount: 1
    m_Data: {fileID: 21300070, guid: 747f25e5b4f0ed34781b3364c07ef750, type: 3}
  - m_RefCount: 1
    m_Data: {fileID: 21300072, guid: 747f25e5b4f0ed34781b3364c07ef750, type: 3}
  - m_RefCount: 1
    m_Data: {fileID: 21300074, guid: 747f25e5b4f0ed34781b3364c07ef750, type: 3}
  - m_RefCount: 1
    m_Data: {fileID: 21300076, guid: 747f25e5b4f0ed34781b3364c07ef750, type: 3}
  - m_RefCount: 1
    m_Data: {fileID: 21300078, guid: 747f25e5b4f0ed34781b3364c07ef750, type: 3}
  - m_RefCount: 1
    m_Data: {fileID: 21300080, guid: 747f25e5b4f0ed34781b3364c07ef750, type: 3}
  - m_RefCount: 1
    m_Data: {fileID: 21300082, guid: 747f25e5b4f0ed34781b3364c07ef750, type: 3}
  - m_RefCount: 1
    m_Data: {fileID: 21300084, guid: 747f25e5b4f0ed34781b3364c07ef750, type: 3}
  - m_RefCount: 1
    m_Data: {fileID: 21300086, guid: 747f25e5b4f0ed34781b3364c07ef750, type: 3}
  - m_RefCount: 1
    m_Data: {fileID: 21300088, guid: 747f25e5b4f0ed34781b3364c07ef750, type: 3}
  - m_RefCount: 1
    m_Data: {fileID: 21300090, guid: 747f25e5b4f0ed34781b3364c07ef750, type: 3}
  - m_RefCount: 1
    m_Data: {fileID: 21300092, guid: 747f25e5b4f0ed34781b3364c07ef750, type: 3}
  - m_RefCount: 1
    m_Data: {fileID: 21300094, guid: 747f25e5b4f0ed34781b3364c07ef750, type: 3}
  - m_RefCount: 1
    m_Data: {fileID: 21300096, guid: 747f25e5b4f0ed34781b3364c07ef750, type: 3}
  - m_RefCount: 1
    m_Data: {fileID: 21300098, guid: 747f25e5b4f0ed34781b3364c07ef750, type: 3}
  - m_RefCount: 1
    m_Data: {fileID: 21300100, guid: 747f25e5b4f0ed34781b3364c07ef750, type: 3}
  - m_RefCount: 1
    m_Data: {fileID: 21300102, guid: 747f25e5b4f0ed34781b3364c07ef750, type: 3}
  - m_RefCount: 1
    m_Data: {fileID: 21300104, guid: 747f25e5b4f0ed34781b3364c07ef750, type: 3}
  - m_RefCount: 1
    m_Data: {fileID: 21300106, guid: 747f25e5b4f0ed34781b3364c07ef750, type: 3}
  - m_RefCount: 1
    m_Data: {fileID: 21300108, guid: 747f25e5b4f0ed34781b3364c07ef750, type: 3}
  - m_RefCount: 1
    m_Data: {fileID: 21300110, guid: 747f25e5b4f0ed34781b3364c07ef750, type: 3}
  - m_RefCount: 1
    m_Data: {fileID: 21300112, guid: 747f25e5b4f0ed34781b3364c07ef750, type: 3}
  - m_RefCount: 1
    m_Data: {fileID: 21300114, guid: 747f25e5b4f0ed34781b3364c07ef750, type: 3}
  - m_RefCount: 1
    m_Data: {fileID: 21300116, guid: 747f25e5b4f0ed34781b3364c07ef750, type: 3}
  - m_RefCount: 1
    m_Data: {fileID: 21300000, guid: ad1896c7ba39b3c418ab285ec6a78e2f, type: 3}
  - m_RefCount: 1
    m_Data: {fileID: 21300000, guid: 7c4c65ad84ced09419f04474efaea17b, type: 3}
  - m_RefCount: 1
    m_Data: {fileID: 21300000, guid: 81a4f0b066621f247a6a3a2830245af3, type: 3}
  - m_RefCount: 1
    m_Data: {fileID: 21300000, guid: ec8f624854e392a428a16065526f0178, type: 3}
  - m_RefCount: 1
    m_Data: {fileID: 21300000, guid: fd4e87e9706208743a2ebf36edc60270, type: 3}
  - m_RefCount: 1
    m_Data: {fileID: 21300000, guid: 9eeaece75ba13334ca6f9ffa0051e638, type: 3}
  - m_RefCount: 1
    m_Data: {fileID: 21300000, guid: 786dae0e130751a48b0f9c6ca5175ae5, type: 3}
  - m_RefCount: 1
    m_Data: {fileID: 21300000, guid: ba8c3499e523401479440280df44db16, type: 3}
  m_TileMatrixArray:
  - m_RefCount: 142
    m_Data:
      e00: 1
      e01: 0
      e02: 0
      e03: 0
      e10: 0
      e11: 1
      e12: 0
      e13: 0
      e20: 0
      e21: 0
      e22: 1
      e23: 0
      e30: 0
      e31: 0
      e32: 0
      e33: 1
  m_TileColorArray:
  - m_RefCount: 142
    m_Data: {r: 1, g: 1, b: 1, a: 1}
  m_TileObjectToInstantiateArray: []
  m_AnimationFrameRate: 1
  m_Color: {r: 1, g: 1, b: 1, a: 1}
  m_Origin: {x: -7, y: -19, z: 0}
  m_Size: {x: 40, y: 21, z: 1}
  m_TileAnchor: {x: 0.5, y: 0.5, z: 0}
  m_TileOrientation: 0
  m_TileOrientationMatrix:
    e00: 1
    e01: 0
    e02: 0
    e03: 0
    e10: 0
    e11: 1
    e12: 0
    e13: 0
    e20: 0
    e21: 0
    e22: 1
    e23: 0
    e30: 0
    e31: 0
    e32: 0
    e33: 1
--- !u!483693784 &556532996577851533
TilemapRenderer:
  m_ObjectHideFlags: 0
  m_CorrespondingSourceObject: {fileID: 0}
  m_PrefabInstance: {fileID: 0}
  m_PrefabAsset: {fileID: 0}
  m_GameObject: {fileID: 9144681322021915894}
  m_Enabled: 0
  m_CastShadows: 0
  m_ReceiveShadows: 0
  m_DynamicOccludee: 0
  m_MotionVectors: 1
  m_LightProbeUsage: 0
  m_ReflectionProbeUsage: 0
  m_RayTracingMode: 0
  m_RenderingLayerMask: 1
  m_RendererPriority: 0
  m_Materials:
  - {fileID: 10754, guid: 0000000000000000f000000000000000, type: 0}
  m_StaticBatchInfo:
    firstSubMesh: 0
    subMeshCount: 0
  m_StaticBatchRoot: {fileID: 0}
  m_ProbeAnchor: {fileID: 0}
  m_LightProbeVolumeOverride: {fileID: 0}
  m_ScaleInLightmap: 1
  m_ReceiveGI: 1
  m_PreserveUVs: 0
  m_IgnoreNormalsForChartDetection: 0
  m_ImportantGI: 0
  m_StitchLightmapSeams: 1
  m_SelectedEditorRenderState: 0
  m_MinimumChartSize: 4
  m_AutoUVMaxDistance: 0.5
  m_AutoUVMaxAngle: 89
  m_LightmapParameters: {fileID: 0}
  m_SortingLayerID: 0
  m_SortingLayer: 0
  m_SortingOrder: 0
  m_ChunkSize: {x: 32, y: 32, z: 32}
  m_ChunkCullingBounds: {x: 0.13999999, y: 0.13999999, z: 0}
  m_MaxChunkCount: 16
  m_MaxFrameAge: 16
  m_SortOrder: 0
  m_Mode: 0
  m_DetectChunkCullingBounds: 0
  m_MaskInteraction: 0
--- !u!114 &-433376513692369134
MonoBehaviour:
  m_ObjectHideFlags: 0
  m_CorrespondingSourceObject: {fileID: 0}
  m_PrefabInstance: {fileID: 0}
  m_PrefabAsset: {fileID: 0}
  m_GameObject: {fileID: 0}
  m_Enabled: 1
  m_EditorHideFlags: 0
  m_Script: {fileID: 12395, guid: 0000000000000000e000000000000000, type: 0}
  m_Name: Palette Settings
  m_EditorClassIdentifier: 
  cellSizing: 0
