%YAML 1.1
%TAG !u! tag:unity3d.com,2011:
--- !u!74 &7400000
AnimationClip:
  m_ObjectHideFlags: 0
  m_CorrespondingSourceObject: {fileID: 0}
  m_PrefabInstance: {fileID: 0}
  m_PrefabAsset: {fileID: 0}
  m_Name: Idle
  serializedVersion: 6
  m_Legacy: 0
  m_Compressed: 0
  m_UseHighQualityCurve: 1
  m_RotationCurves: []
  m_CompressedRotationCurves: []
  m_EulerCurves: []
  m_PositionCurves: []
  m_ScaleCurves: []
  m_FloatCurves:
  - curve:
      serializedVersion: 2
      m_Curve:
      - serializedVersion: 3
        time: 0
        value: -0.057208255
        inSlope: 0
        outSlope: 0
        tangentMode: 136
        weightedMode: 0
        inWeight: 0
        outWeight: 0
      m_PreInfinity: 2
      m_PostInfinity: 2
      m_RotationOrder: 4
    attribute: m_Offset.y
    path: Hit_Box
    classID: 61
    script: {fileID: 0}
  - curve:
      serializedVersion: 2
      m_Curve:
      - serializedVersion: 3
        time: 0
        value: 0.6815655
        inSlope: 0
        outSlope: 0
        tangentMode: 136
        weightedMode: 0
        inWeight: 0
        outWeight: 0
      m_PreInfinity: 2
      m_PostInfinity: 2
      m_RotationOrder: 4
    attribute: m_Size.y
    path: Hit_Box
    classID: 61
    script: {fileID: 0}
  m_PPtrCurves:
  - curve:
    - time: 0
      value: {fileID: -7192662438768965578, guid: c1beda651adaa3241816ace377821bdd,
        type: 3}
    - time: 0.1
      value: {fileID: 7783937878145129756, guid: c1beda651adaa3241816ace377821bdd,
        type: 3}
    - time: 0.2
      value: {fileID: -6167939218713042497, guid: c1beda651adaa3241816ace377821bdd,
        type: 3}
    - time: 0.3
      value: {fileID: 7696158833933001535, guid: c1beda651adaa3241816ace377821bdd,
        type: 3}
    - time: 0.4
      value: {fileID: 5323977025319120323, guid: c1beda651adaa3241816ace377821bdd,
        type: 3}
    - time: 0.5
      value: {fileID: 7847214688641733902, guid: c1beda651adaa3241816ace377821bdd,
        type: 3}
    - time: 0.6
      value: {fileID: 5323977025319120323, guid: c1beda651adaa3241816ace377821bdd,
        type: 3}
    - time: 0.7
      value: {fileID: 5323977025319120323, guid: c1beda651adaa3241816ace377821bdd,
        type: 3}
    attribute: m_Sprite
    path: 
    classID: 212
    script: {fileID: 0}
  m_SampleRate: 30
  m_WrapMode: 0
  m_Bounds:
    m_Center: {x: 0, y: 0, z: 0}
    m_Extent: {x: 0, y: 0, z: 0}
  m_ClipBindingConstant:
    genericBindings:
    - serializedVersion: 2
      path: 0
      attribute: 0
      script: {fileID: 0}
      typeID: 212
      customType: 23
      isPPtrCurve: 1
    - serializedVersion: 2
      path: 2515154113
      attribute: 1872933342
      script: {fileID: 0}
      typeID: 61
      customType: 0
      isPPtrCurve: 0
    - serializedVersion: 2
      path: 2515154113
      attribute: 2368279999
      script: {fileID: 0}
      typeID: 61
      customType: 0
      isPPtrCurve: 0
    pptrCurveMapping:
    - {fileID: -7192662438768965578, guid: c1beda651adaa3241816ace377821bdd, type: 3}
    - {fileID: 7783937878145129756, guid: c1beda651adaa3241816ace377821bdd, type: 3}
    - {fileID: -6167939218713042497, guid: c1beda651adaa3241816ace377821bdd, type: 3}
    - {fileID: 7696158833933001535, guid: c1beda651adaa3241816ace377821bdd, type: 3}
    - {fileID: 5323977025319120323, guid: c1beda651adaa3241816ace377821bdd, type: 3}
    - {fileID: 7847214688641733902, guid: c1beda651adaa3241816ace377821bdd, type: 3}
    - {fileID: 5323977025319120323, guid: c1beda651adaa3241816ace377821bdd, type: 3}
    - {fileID: 5323977025319120323, guid: c1beda651adaa3241816ace377821bdd, type: 3}
  m_AnimationClipSettings:
    serializedVersion: 2
    m_AdditiveReferencePoseClip: {fileID: 0}
    m_AdditiveReferencePoseTime: 0
    m_StartTime: 0
    m_StopTime: 0.73333335
    m_OrientationOffsetY: 0
    m_Level: 0
    m_CycleOffset: 0
    m_HasAdditiveReferencePose: 0
    m_LoopTime: 1
    m_LoopBlend: 0
    m_LoopBlendOrientation: 0
    m_LoopBlendPositionY: 0
    m_LoopBlendPositionXZ: 0
    m_KeepOriginalOrientation: 0
    m_KeepOriginalPositionY: 1
    m_KeepOriginalPositionXZ: 0
    m_HeightFromFeet: 0
    m_Mirror: 0
  m_EditorCurves:
  - curve:
      serializedVersion: 2
      m_Curve:
      - serializedVersion: 3
        time: 0
        value: -0.057208255
        inSlope: 0
        outSlope: 0
        tangentMode: 136
        weightedMode: 0
        inWeight: 0
        outWeight: 0
      m_PreInfinity: 2
      m_PostInfinity: 2
      m_RotationOrder: 4
    attribute: m_Offset.y
    path: Hit_Box
    classID: 61
    script: {fileID: 0}
  - curve:
      serializedVersion: 2
      m_Curve:
      - serializedVersion: 3
        time: 0
        value: 0.6815655
        inSlope: 0
        outSlope: 0
        tangentMode: 136
        weightedMode: 0
        inWeight: 0
        outWeight: 0
      m_PreInfinity: 2
      m_PostInfinity: 2
      m_RotationOrder: 4
    attribute: m_Size.y
    path: Hit_Box
    classID: 61
    script: {fileID: 0}
  m_EulerEditorCurves: []
  m_HasGenericRootTransform: 0
  m_HasMotionFloatCurves: 0
  m_Events: []
