%YAML 1.1
%TAG !u! tag:unity3d.com,2011:
--- !u!1045 &1
EditorBuildSettings:
  m_ObjectHideFlags: 0
  serializedVersion: 2
  m_Scenes:
  - enabled: 1
    path: Assets/Scenes/MainMenu.unity
    guid: 110ed5b32b9920e46834d79aa76741a0
  - enabled: 1
    path: Assets/Scenes/GameOver.unity
    guid: 1752a2916e6f48942afce1b9811646e6
  - enabled: 1
    path: Assets/Scenes/Ranking.unity
    guid: 35ca6b6ea39c2ab4781f9bafd1bf4d79
  - enabled: 1
    path: Assets/Scenes/1.1.unity
    guid: 2cda990e2423bbf4892e6590ba056729
  - enabled: 1
    path: Assets/Scenes/1.2.unity
    guid: d5d57b382782b9048b2fe0b73ca3d55d
  - enabled: 1
    path: Assets/Scenes/1.3.2.unity
    guid: aa47a9d161e4f6d42a8fc8a2db116c2a
  - enabled: 1
    path: Assets/Scenes/MainMenu2.unity
    guid: 21eaaabc88eebdd44b36425319bf4f7f
  m_configObjects: {}
