%YAML 1.1
%TAG !u! tag:unity3d.com,2011:
--- !u!74 &7400000
AnimationClip:
  m_ObjectHideFlags: 0
  m_CorrespondingSourceObject: {fileID: 0}
  m_PrefabInstance: {fileID: 0}
  m_PrefabAsset: {fileID: 0}
  m_Name: Somersault_Fire
  serializedVersion: 6
  m_Legacy: 0
  m_Compressed: 0
  m_UseHighQualityCurve: 1
  m_RotationCurves: []
  m_CompressedRotationCurves: []
  m_EulerCurves: []
  m_PositionCurves: []
  m_ScaleCurves: []
  m_FloatCurves: []
  m_PPtrCurves:
  - curve:
    - time: 0
      value: {fileID: 8874269692277038336, guid: 2d9bc36b9c11f2a40a025a50ea07b00d,
        type: 3}
    - time: 0.06666667
      value: {fileID: -1376420419157536772, guid: 2d9bc36b9c11f2a40a025a50ea07b00d,
        type: 3}
    - time: 0.13333334
      value: {fileID: 6660203942946578812, guid: 2d9bc36b9c11f2a40a025a50ea07b00d,
        type: 3}
    - time: 0.2
      value: {fileID: -3074370589170660602, guid: 2d9bc36b9c11f2a40a025a50ea07b00d,
        type: 3}
    - time: 0.26666668
      value: {fileID: -5123009256144014470, guid: 2d9bc36b9c11f2a40a025a50ea07b00d,
        type: 3}
    - time: 0.33333334
      value: {fileID: 4750201040287301298, guid: 2d9bc36b9c11f2a40a025a50ea07b00d,
        type: 3}
    - time: 0.4
      value: {fileID: -8869153318036311232, guid: 2d9bc36b9c11f2a40a025a50ea07b00d,
        type: 3}
    - time: 0.46666667
      value: {fileID: 6112830872094446596, guid: 2d9bc36b9c11f2a40a025a50ea07b00d,
        type: 3}
    - time: 0.53333336
      value: {fileID: 6313672084612944144, guid: 2d9bc36b9c11f2a40a025a50ea07b00d,
        type: 3}
    - time: 0.6
      value: {fileID: -6029138846004177017, guid: 2d9bc36b9c11f2a40a025a50ea07b00d,
        type: 3}
    - time: 0.6666667
      value: {fileID: 3841858383196425748, guid: 2d9bc36b9c11f2a40a025a50ea07b00d,
        type: 3}
    attribute: m_Sprite
    path: 
    classID: 212
    script: {fileID: 0}
  m_SampleRate: 15
  m_WrapMode: 0
  m_Bounds:
    m_Center: {x: 0, y: 0, z: 0}
    m_Extent: {x: 0, y: 0, z: 0}
  m_ClipBindingConstant:
    genericBindings:
    - serializedVersion: 2
      path: 0
      attribute: 0
      script: {fileID: 0}
      typeID: 212
      customType: 23
      isPPtrCurve: 1
    pptrCurveMapping:
    - {fileID: 8874269692277038336, guid: 2d9bc36b9c11f2a40a025a50ea07b00d, type: 3}
    - {fileID: -1376420419157536772, guid: 2d9bc36b9c11f2a40a025a50ea07b00d, type: 3}
    - {fileID: 6660203942946578812, guid: 2d9bc36b9c11f2a40a025a50ea07b00d, type: 3}
    - {fileID: -3074370589170660602, guid: 2d9bc36b9c11f2a40a025a50ea07b00d, type: 3}
    - {fileID: -5123009256144014470, guid: 2d9bc36b9c11f2a40a025a50ea07b00d, type: 3}
    - {fileID: 4750201040287301298, guid: 2d9bc36b9c11f2a40a025a50ea07b00d, type: 3}
    - {fileID: -8869153318036311232, guid: 2d9bc36b9c11f2a40a025a50ea07b00d, type: 3}
    - {fileID: 6112830872094446596, guid: 2d9bc36b9c11f2a40a025a50ea07b00d, type: 3}
    - {fileID: 6313672084612944144, guid: 2d9bc36b9c11f2a40a025a50ea07b00d, type: 3}
    - {fileID: -6029138846004177017, guid: 2d9bc36b9c11f2a40a025a50ea07b00d, type: 3}
    - {fileID: 3841858383196425748, guid: 2d9bc36b9c11f2a40a025a50ea07b00d, type: 3}
  m_AnimationClipSettings:
    serializedVersion: 2
    m_AdditiveReferencePoseClip: {fileID: 0}
    m_AdditiveReferencePoseTime: 0
    m_StartTime: 0
    m_StopTime: 0.73333335
    m_OrientationOffsetY: 0
    m_Level: 0
    m_CycleOffset: 0
    m_HasAdditiveReferencePose: 0
    m_LoopTime: 1
    m_LoopBlend: 0
    m_LoopBlendOrientation: 0
    m_LoopBlendPositionY: 0
    m_LoopBlendPositionXZ: 0
    m_KeepOriginalOrientation: 0
    m_KeepOriginalPositionY: 1
    m_KeepOriginalPositionXZ: 0
    m_HeightFromFeet: 0
    m_Mirror: 0
  m_EditorCurves: []
  m_EulerEditorCurves: []
  m_HasGenericRootTransform: 0
  m_HasMotionFloatCurves: 0
  m_Events: []
